<?xml version="1.0" encoding="UTF-8" standalone="no"?>
<svg
   xmlns:dc="http://purl.org/dc/elements/1.1/"
   xmlns:cc="http://creativecommons.org/ns#"
   xmlns:rdf="http://www.w3.org/1999/02/22-rdf-syntax-ns#"
   xmlns:svg="http://www.w3.org/2000/svg"
   xmlns="http://www.w3.org/2000/svg"
   xmlns:sodipodi="http://sodipodi.sourceforge.net/DTD/sodipodi-0.dtd"
   xmlns:inkscape="http://www.inkscape.org/namespaces/inkscape"
   inkscape:version="0.92.5 (2060ec1f9f, 2020-04-08)"
   sodipodi:docname="Recursive.svg"
   id="svg8"
   version="1.1"
   viewBox="0 0 692.65515 455.64085"
   height="455.64084mm"
   width="692.65515mm">
  <sodipodi:namedview
     inkscape:document-rotation="0"
     inkscape:current-layer="svg8"
     inkscape:window-maximized="1"
     inkscape:window-y="0"
     inkscape:window-x="0"
     inkscape:cy="758.0685"
     inkscape:cx="1057.1918"
     inkscape:zoom="0.30831309"
     showgrid="false"
     id="namedview137"
     inkscape:window-height="827"
     inkscape:window-width="1600"
     inkscape:pageshadow="2"
     inkscape:pageopacity="0"
     guidetolerance="10"
     gridtolerance="10"
     objecttolerance="10"
     borderopacity="1"
     bordercolor="#666666"
     pagecolor="#ffffff"
     fit-margin-top="10"
     fit-margin-left="10"
     fit-margin-right="10"
     fit-margin-bottom="10" />
  <defs
     id="defs2">
    <marker
       inkscape:stockid="Arrow1Send"
       orient="auto"
       refY="0.0"
       refX="0.0"
       id="marker1336"
       style="overflow:visible;"
       inkscape:isstock="true">
      <path
         id="path1088"
         d="M 0.0,0.0 L 5.0,-5.0 L -12.5,0.0 L 5.0,5.0 L 0.0,0.0 z "
         style="fill-rule:evenodd;stroke:#010000;stroke-width:1pt;stroke-opacity:1;fill:#010000;fill-opacity:1"
         transform="scale(0.2) rotate(180) translate(6,0)" />
    </marker>
    <marker
       inkscape:stockid="Arrow1Send"
       orient="auto"
       refY="0.0"
       refX="0.0"
       id="marker2124"
       style="overflow:visible;"
       inkscape:isstock="true">
      <path
         id="path1876"
         d="M 0.0,0.0 L 5.0,-5.0 L -12.5,0.0 L 5.0,5.0 L 0.0,0.0 z "
         style="fill-rule:evenodd;stroke:#000025;stroke-width:1pt;stroke-opacity:1;fill:#000025;fill-opacity:1"
         transform="scale(0.2) rotate(180) translate(6,0)" />
    </marker>
    <marker
       inkscape:stockid="Arrow1Sstart"
       orient="auto"
       refY="0"
       refX="0"
       id="Arrow1Sstart"
       style="overflow:visible"
       inkscape:isstock="true">
      <path
         id="path1694"
         d="M 0,0 5,-5 -12.5,0 5,5 Z"
         style="fill:#ff0c80;fill-opacity:1;fill-rule:evenodd;stroke:#ff0c80;stroke-width:1.00000003pt;stroke-opacity:1"
         transform="matrix(0.2,0,0,0.2,1.2,0)"
         inkscape:connector-curvature="0" />
    </marker>
    <marker
       inkscape:stockid="Arrow1Send"
       orient="auto"
       refY="0"
       refX="0"
       id="marker1945"
       style="overflow:visible"
       inkscape:isstock="true">
      <path
         id="path1697"
         d="M 0,0 5,-5 -12.5,0 5,5 Z"
         style="fill:#ff0c80;fill-opacity:1;fill-rule:evenodd;stroke:#ff0c80;stroke-width:1.00000003pt;stroke-opacity:1"
         transform="matrix(-0.2,0,0,-0.2,-1.2,0)"
         inkscape:connector-curvature="0" />
    </marker>
    <marker
       style="overflow:visible"
       id="Arrow1Send"
       refX="0"
       refY="0"
       orient="auto">
      <path
         transform="matrix(-0.2,0,0,-0.2,-1.2,0)"
         style="fill:#ff0000;fill-opacity:1;fill-rule:evenodd;stroke:#ff0000;stroke-width:1.00000003pt;stroke-opacity:1"
         d="M 0,0 5,-5 -12.5,0 5,5 Z"
         id="path870"
         inkscape:connector-curvature="0" />
    </marker>
    <marker
       style="overflow:visible"
       id="Arrow1Send-3"
       refX="0"
       refY="0"
       orient="auto">
      <path
         transform="matrix(-0.2,0,0,-0.2,-1.2,0)"
         style="fill:#ff0000;fill-opacity:1;fill-rule:evenodd;stroke:#ff0000;stroke-width:1.00000003pt;stroke-opacity:1"
         d="M 0,0 5,-5 -12.5,0 5,5 Z"
         id="path870-6"
         inkscape:connector-curvature="0" />
    </marker>
    <marker
       style="overflow:visible"
       id="Arrow1Send-1"
       refX="0"
       refY="0"
       orient="auto">
      <path
         transform="matrix(-0.2,0,0,-0.2,-1.2,0)"
         style="fill:#0000ff;fill-opacity:1;fill-rule:evenodd;stroke:#0000ff;stroke-width:1.00000003pt;stroke-opacity:1"
         d="M 0,0 5,-5 -12.5,0 5,5 Z"
         id="path870-5"
         inkscape:connector-curvature="0" />
    </marker>
    <marker
       style="overflow:visible"
       id="Arrow1Send-1-4"
       refX="0"
       refY="0"
       orient="auto">
      <path
         transform="matrix(-0.2,0,0,-0.2,-1.2,0)"
         style="fill:#0000ff;fill-opacity:1;fill-rule:evenodd;stroke:#0000ff;stroke-width:1.00000003pt;stroke-opacity:1"
         d="M 0,0 5,-5 -12.5,0 5,5 Z"
         id="path870-5-7"
         inkscape:connector-curvature="0" />
    </marker>
    <marker
       style="overflow:visible"
       id="Arrow1Send-1-4-5"
       refX="0"
       refY="0"
       orient="auto">
      <path
         transform="matrix(-0.2,0,0,-0.2,-1.2,0)"
         style="fill:#0000ff;fill-opacity:1;fill-rule:evenodd;stroke:#0000ff;stroke-width:1.00000003pt;stroke-opacity:1"
         d="M 0,0 5,-5 -12.5,0 5,5 Z"
         id="path870-5-7-6"
         inkscape:connector-curvature="0" />
    </marker>
    <marker
       style="overflow:visible"
       id="Arrow1Send-1-4-5-3"
       refX="0"
       refY="0"
       orient="auto">
      <path
         transform="matrix(-0.2,0,0,-0.2,-1.2,0)"
         style="fill:#0000ff;fill-opacity:1;fill-rule:evenodd;stroke:#0000ff;stroke-width:1.00000003pt;stroke-opacity:1"
         d="M 0,0 5,-5 -12.5,0 5,5 Z"
         id="path870-5-7-6-7"
         inkscape:connector-curvature="0" />
    </marker>
    <marker
       style="overflow:visible"
       id="Arrow1Send-1-4-5-5"
       refX="0"
       refY="0"
       orient="auto">
      <path
         transform="matrix(-0.2,0,0,-0.2,-1.2,0)"
         style="fill:#000000;fill-opacity:1;fill-rule:evenodd;stroke:#000000;stroke-width:1.00000003pt;stroke-opacity:1"
         d="M 0,0 5,-5 -12.5,0 5,5 Z"
         id="path870-5-7-6-2"
         inkscape:connector-curvature="0" />
    </marker>
    <marker
       style="overflow:visible"
       id="Arrow1Send-8"
       refX="0"
       refY="0"
       orient="auto">
      <path
         transform="matrix(-0.2,0,0,-0.2,-1.2,0)"
         style="fill:#ff0000;fill-opacity:1;fill-rule:evenodd;stroke:#ff0000;stroke-width:1.00000003pt;stroke-opacity:1"
         d="M 0,0 5,-5 -12.5,0 5,5 Z"
         id="path870-68"
         inkscape:connector-curvature="0" />
    </marker>
    <marker
       style="overflow:visible"
       id="Arrow1Send-8-4"
       refX="0"
       refY="0"
       orient="auto">
      <path
         transform="matrix(-0.2,0,0,-0.2,-1.2,0)"
         style="fill:#0000ff;fill-opacity:1;fill-rule:evenodd;stroke:#0000ff;stroke-width:1.00000003pt;stroke-opacity:1"
         d="M 0,0 5,-5 -12.5,0 5,5 Z"
         id="path870-68-3"
         inkscape:connector-curvature="0" />
    </marker>
    <marker
       style="overflow:visible"
       id="Arrow1Send-8-4-4"
       refX="0"
       refY="0"
       orient="auto">
      <path
         inkscape:connector-curvature="0"
         transform="matrix(-0.2,0,0,-0.2,-1.2,0)"
         style="fill:#0000ff;fill-opacity:1;fill-rule:evenodd;stroke:#0000ff;stroke-width:1.00000003pt;stroke-opacity:1"
         d="M 0,0 5,-5 -12.5,0 5,5 Z"
         id="path870-68-3-5" />
    </marker>
    <marker
       inkscape:stockid="Arrow1Sstart"
       orient="auto"
       refY="0"
       refX="0"
       id="Arrow1Sstart-6"
       style="overflow:visible"
       inkscape:isstock="true">
      <path
         inkscape:connector-curvature="0"
         id="path1694-1"
         d="M 0,0 5,-5 -12.5,0 5,5 Z"
         style="fill:#ff0c80;fill-opacity:1;fill-rule:evenodd;stroke:#ff0c80;stroke-width:1.00000003pt;stroke-opacity:1"
         transform="matrix(0.2,0,0,0.2,1.2,0)" />
    </marker>
    <marker
       inkscape:stockid="Arrow1Send"
       orient="auto"
       refY="0"
       refX="0"
       id="marker1945-5"
       style="overflow:visible"
       inkscape:isstock="true">
      <path
         inkscape:connector-curvature="0"
         id="path1697-5"
         d="M 0,0 5,-5 -12.5,0 5,5 Z"
         style="fill:#ff0c80;fill-opacity:1;fill-rule:evenodd;stroke:#ff0c80;stroke-width:1.00000003pt;stroke-opacity:1"
         transform="matrix(-0.2,0,0,-0.2,-1.2,0)" />
    </marker>
    <marker
       style="overflow:visible"
       id="Arrow1Send-8-4-4-2"
       refX="0"
       refY="0"
       orient="auto">
      <path
         inkscape:connector-curvature="0"
         transform="matrix(-0.2,0,0,-0.2,-1.2,0)"
         style="fill:#0000ff;fill-opacity:1;fill-rule:evenodd;stroke:#0000ff;stroke-width:1.00000003pt;stroke-opacity:1"
         d="M 0,0 5,-5 -12.5,0 5,5 Z"
         id="path870-68-3-5-9" />
    </marker>
    <marker
       style="overflow:visible"
       id="Arrow1Send-8-2"
       refX="0"
       refY="0"
       orient="auto">
      <path
         transform="matrix(-0.2,0,0,-0.2,-1.2,0)"
         style="fill:#ff0000;fill-opacity:1;fill-rule:evenodd;stroke:#ff0000;stroke-width:1.00000003pt;stroke-opacity:1"
         d="M 0,0 5,-5 -12.5,0 5,5 Z"
         id="path870-68-7"
         inkscape:connector-curvature="0" />
    </marker>
  </defs>
  <metadata
     id="metadata5">
    <rdf:RDF>
      <cc:Work
         rdf:about="">
        <dc:format>image/svg+xml</dc:format>
        <dc:type
           rdf:resource="http://purl.org/dc/dcmitype/StillImage" />
        <dc:title />
      </cc:Work>
    </rdf:RDF>
  </metadata>
  <text
     xml:space="preserve"
     style="font-style:normal;font-variant:normal;font-weight:normal;font-stretch:normal;font-size:7.05556011px;line-height:125%;font-family:sans-serif;-inkscape-font-specification:sans-serif;text-align:justify;letter-spacing:0px;word-spacing:0px;text-anchor:start;fill:#000000;fill-opacity:1;stroke:none;stroke-width:0.26458299px;stroke-linecap:butt;stroke-linejoin:miter;stroke-opacity:1"
     x="286.40887"
     y="61.901962"
     id="text855"><tspan
       x="286.40887"
       y="68.144478"
       style="font-size:8.81943989px;stroke-width:0.26458299px"
       id="tspan871" /></text>
  <rect
     style="opacity:1;fill:#ffffff;fill-opacity:1;stroke:#000000;stroke-width:2;stroke-linecap:round;stroke-linejoin:round;stroke-miterlimit:4;stroke-dasharray:none;stroke-dashoffset:0;stroke-opacity:1"
     id="rect815"
     width="123.85373"
     height="156.48215"
     x="266.75418"
     y="19.266232" />
  <text
     id="text1158"
     y="57.596748"
     x="269.77783"
     style="font-style:normal;font-variant:normal;font-weight:normal;font-stretch:normal;font-size:7.05556011px;line-height:0;font-family:sans-serif;-inkscape-font-specification:sans-serif;text-align:justify;letter-spacing:0px;word-spacing:0px;text-anchor:start;fill:#000000;fill-opacity:1;stroke:none;stroke-width:0.26458299px;stroke-linecap:butt;stroke-linejoin:miter;stroke-opacity:1"
     xml:space="preserve"><tspan
       id="tspan430"
       style="font-style:normal;font-variant:normal;font-weight:normal;font-stretch:normal;font-size:9.17222023px;line-height:100%;font-family:monospace;-inkscape-font-specification:monospace;stroke-width:0.26458299px"
       y="59.542351"
       x="269.77783"
       sodipodi:role="line" /></text>
  <rect
     style="opacity:1;fill:#ffffff;fill-opacity:1;stroke:#000000;stroke-width:2;stroke-linecap:round;stroke-linejoin:round;stroke-miterlimit:4;stroke-dasharray:none;stroke-dashoffset:0;stroke-opacity:1"
     id="rect815-2"
     width="121.70833"
     height="156.48215"
     x="116.31966"
     y="149.06091" />
  <text
     id="text1304"
     y="171.96999"
     x="121.61119"
     style="font-style:normal;font-variant:normal;font-weight:normal;font-stretch:normal;font-size:7.05556011px;line-height:125%;font-family:sans-serif;-inkscape-font-specification:sans-serif;text-align:justify;letter-spacing:0px;word-spacing:0px;text-anchor:start;fill:#000000;fill-opacity:1;stroke:none;stroke-width:0.26458299px;stroke-linecap:butt;stroke-linejoin:miter;stroke-opacity:1"
     xml:space="preserve"><tspan
       style="font-style:normal;font-variant:normal;font-weight:normal;font-stretch:normal;font-size:9.17222023px;font-family:monospace;-inkscape-font-specification:monospace;stroke-width:0.26458299px"
       y="178.3253"
       x="121.61119"
       sodipodi:role="line"
       id="tspan3893" /></text>
  <rect
     style="opacity:1;fill:#ffffff;fill-opacity:1;stroke:#000000;stroke-width:2;stroke-linecap:round;stroke-linejoin:round;stroke-miterlimit:4;stroke-dasharray:none;stroke-dashoffset:0;stroke-opacity:1"
     id="rect815-37"
     width="121.70833"
     height="156.48215"
     x="417.18869"
     y="149.06091" />
  <text
     id="text1342"
     y="171.96999"
     x="422.66019"
     style="font-style:normal;font-variant:normal;font-weight:normal;font-stretch:normal;font-size:7.05556011px;line-height:125%;font-family:sans-serif;-inkscape-font-specification:sans-serif;text-align:justify;letter-spacing:0px;word-spacing:0px;text-anchor:start;fill:#000000;fill-opacity:1;stroke:none;stroke-width:0.26458299px;stroke-linecap:butt;stroke-linejoin:miter;stroke-opacity:1"
     xml:space="preserve"><tspan
       style="font-size:9.17222023px;stroke-width:0.26458299px"
       id="tspan1340"
       y="178.3253"
       x="422.66019"
       sodipodi:role="line" /></text>
  <text
     id="text1208"
     y="29.788502"
     x="395.89758"
     style="font-style:normal;font-variant:normal;font-weight:normal;font-stretch:normal;font-size:7.05556011px;line-height:125%;font-family:sans-serif;-inkscape-font-specification:sans-serif;text-align:justify;letter-spacing:0px;word-spacing:0px;text-anchor:start;fill:#168500;fill-opacity:1;stroke:none;stroke-width:0.26458299px;stroke-linecap:butt;stroke-linejoin:miter;stroke-opacity:1"
     xml:space="preserve"><tspan
       style="font-size:9.17222214px;stroke-width:0.26458299px"
       id="tspan1180"
       y="29.788502"
       x="395.89758"
       sodipodi:role="line"><tspan
         id="tspan1176"
         style="font-size:9.17222214px;text-align:start;text-anchor:start;fill:#168500;fill-opacity:1;stroke-width:0.26458299px"
         y="29.788502"
         x="395.89758"
         dx="0 0 0 0 0 0 0 0 0 0 0 0 0 0 0 0 0 0 0">Bill of materials:</tspan></tspan><tspan
       style="font-size:9.17222214px;stroke-width:0.26458299px"
       id="tspan1184"
       y="38.607952"
       x="395.89758"
       sodipodi:role="line" /><tspan
       style="font-size:9.17222214px;stroke-width:0.26458299px"
       id="tspan1206"
       y="48.011082"
       x="395.89758"
       sodipodi:role="line">1 x RepRap</tspan><tspan
       style="font-size:9.17222214px;stroke-width:0.26458299px"
       y="57.414211"
       x="395.89758"
       sodipodi:role="line"
       id="tspan256">200g of PLA</tspan><tspan
       style="font-size:9.17222214px;stroke-width:0.26458299px"
       y="66.817337"
       x="395.89758"
       sodipodi:role="line"
       id="tspan1313">Some other parts</tspan></text>
  <path
     style="fill:none;fill-rule:evenodd;stroke:#ff0000;stroke-width:3.7650001;stroke-linecap:butt;stroke-linejoin:miter;stroke-miterlimit:4;stroke-dasharray:none;stroke-opacity:1;marker-end:url(#Arrow1Send)"
     d="M 278.44299,112.62259 205.2663,145.84954"
     id="path853"
     inkscape:connector-curvature="0"
     sodipodi:nodetypes="cc" />
  <path
     sodipodi:nodetypes="cc"
     style="fill:none;fill-rule:evenodd;stroke:#ff0000;stroke-width:3.7650001;stroke-linecap:butt;stroke-linejoin:miter;stroke-miterlimit:4;stroke-dasharray:none;stroke-opacity:1;marker-end:url(#Arrow1Send-3)"
     d="m 370.49073,125.98891 57.03929,18.53564"
     id="path853-7"
     inkscape:connector-curvature="0" />
  <text
     id="text1254"
     y="155.56596"
     x="542.72644"
     style="font-style:normal;font-variant:normal;font-weight:normal;font-stretch:normal;font-size:7.05556011px;line-height:125%;font-family:sans-serif;-inkscape-font-specification:sans-serif;text-align:justify;letter-spacing:0px;word-spacing:0px;text-anchor:start;fill:#168500;fill-opacity:1;stroke:none;stroke-width:0.26458299px;stroke-linecap:butt;stroke-linejoin:miter;stroke-opacity:1"
     xml:space="preserve"><tspan
       style="font-size:9.17222691px;stroke-width:0.26458299px"
       id="tspan1252"
       y="155.56596"
       x="542.72644"
       sodipodi:role="line">Bill of materials:</tspan><tspan
       style="font-size:9.17222691px;stroke-width:0.26458299px"
       y="164.38541"
       x="542.72644"
       sodipodi:role="line"
       id="tspan3050" /><tspan
       style="font-size:9.17222691px;stroke-width:0.26458299px"
       y="173.78854"
       x="542.72644"
       sodipodi:role="line"
       id="tspan3056">Lots of plastic parts</tspan><tspan
       style="font-size:9.17222691px;stroke-width:0.26458299px"
       y="183.19168"
       x="542.72644"
       sodipodi:role="line"
       id="tspan1290">Some other parts</tspan></text>
  <text
     id="text1232"
     y="155.4951"
     x="27.395203"
     style="font-style:normal;font-variant:normal;font-weight:normal;font-stretch:normal;font-size:7.05556011px;line-height:125%;font-family:sans-serif;-inkscape-font-specification:sans-serif;text-align:justify;letter-spacing:0px;word-spacing:0px;text-anchor:start;fill:#168500;fill-opacity:1;stroke:none;stroke-width:0.26458299px;stroke-linecap:butt;stroke-linejoin:miter;stroke-opacity:1"
     xml:space="preserve"><tspan
       style="font-size:9.17222214px;stroke-width:0.26458299px"
       id="tspan1214"
       y="155.4951"
       x="27.395203"
       sodipodi:role="line"><tspan
         id="tspan1210"
         style="font-size:9.17222214px;text-align:start;text-anchor:start;fill:#168500;fill-opacity:1;stroke-width:0.26458299px"
         y="155.4951"
         x="27.395203"
         dx="0 0 0 0 0 0 0 0 0 0 0 0 0 0 0 0 0 0 0">Bill of materials:</tspan></tspan><tspan
       style="font-size:9.17222214px;stroke-width:0.26458299px"
       id="tspan1218"
       y="164.31454"
       x="27.395203"
       sodipodi:role="line" /><tspan
       style="font-size:9.17222214px;stroke-width:0.26458299px"
       id="tspan1230"
       y="173.71768"
       x="27.395203"
       sodipodi:role="line">1 x RepRap</tspan><tspan
       style="font-size:9.17222214px;stroke-width:0.26458299px"
       y="183.1208"
       x="27.395203"
       sodipodi:role="line"
       id="tspan254">200g of PLA</tspan></text>
  <rect
     style="opacity:1;fill:#ffffff;fill-opacity:1;stroke:#000000;stroke-width:2;stroke-linecap:round;stroke-linejoin:round;stroke-miterlimit:4;stroke-dasharray:none;stroke-dashoffset:0;stroke-opacity:1"
     id="rect815-2-6"
     width="121.70833"
     height="156.48215"
     x="492.40591"
     y="288.15869" />
  <text
     id="text1376"
     y="311.06836"
     x="497.69745"
     style="font-style:normal;font-variant:normal;font-weight:normal;font-stretch:normal;font-size:7.05556011px;line-height:125%;font-family:sans-serif;-inkscape-font-specification:sans-serif;text-align:justify;letter-spacing:0px;word-spacing:0px;text-anchor:start;fill:#000000;fill-opacity:1;stroke:none;stroke-width:0.26458299px;stroke-linecap:butt;stroke-linejoin:miter;stroke-opacity:1"
     xml:space="preserve"><tspan
       style="font-size:9.17222023px;stroke-width:0.26458299px"
       id="tspan1348"
       y="311.06836"
       x="497.69745"
       sodipodi:role="line"><tspan
         id="tspan1344"
         style="font-style:normal;font-variant:normal;font-weight:normal;font-stretch:normal;font-size:9.17222023px;font-family:monospace;-inkscape-font-specification:monospace;text-align:start;text-anchor:start;stroke-width:0.26458299px"
         y="311.06836"
         x="497.69745"># Other parts</tspan></tspan><tspan
       id="tspan1352"
       y="319.88782"
       x="497.69745"
       sodipodi:role="line" /><tspan
       style="font-size:9.17222023px;stroke-width:0.26458299px"
       id="tspan1374"
       y="329.29092"
       x="497.69745"
       sodipodi:role="line">All the other things!</tspan></text>
  <path
     style="fill:none;fill-rule:evenodd;stroke:#0000ff;stroke-width:3.7650001;stroke-linecap:butt;stroke-linejoin:miter;stroke-miterlimit:4;stroke-dasharray:none;stroke-opacity:1;marker-end:url(#Arrow1Send-1)"
     d="M 116.03589,216.20488 70.229315,288.36445"
     id="path853-5"
     inkscape:connector-curvature="0"
     sodipodi:nodetypes="cc" />
  <path
     style="fill:none;fill-rule:evenodd;stroke:#0000ff;stroke-width:3.7650001;stroke-linecap:butt;stroke-linejoin:miter;stroke-miterlimit:4;stroke-dasharray:none;stroke-opacity:1;marker-end:url(#Arrow1Send-1-4-5-3)"
     d="m 511.34094,220.4156 39.40134,63.72656"
     id="path853-5-6-9-4"
     inkscape:connector-curvature="0"
     sodipodi:nodetypes="cc" />
  <g
     id="g1680"
     transform="translate(-13.278155,3.1442072)">
    <path
       inkscape:connector-curvature="0"
       id="path853-8"
       d="M 30,19.451918 H 72.33333"
       style="fill:none;fill-rule:evenodd;stroke:#ff0000;stroke-width:3.7650001;stroke-linecap:butt;stroke-linejoin:miter;stroke-miterlimit:4;stroke-dasharray:none;stroke-opacity:1;marker-end:url(#Arrow1Send-8)" />
    <text
       xml:space="preserve"
       style="font-style:normal;font-variant:normal;font-weight:normal;font-stretch:normal;font-size:7.05556011px;line-height:125%;font-family:sans-serif;-inkscape-font-specification:sans-serif;text-align:justify;letter-spacing:0px;word-spacing:0px;text-anchor:start;fill:#f80000;fill-opacity:1;stroke:none;stroke-width:0.26458299px;stroke-linecap:butt;stroke-linejoin:miter;stroke-opacity:1"
       x="83.156494"
       y="13.502069"
       id="text1070"><tspan
         sodipodi:role="line"
         x="83.156494"
         y="13.502069"
         id="tspan1058"
         style="stroke-width:0.26458299px"><tspan
           x="83.156494"
           y="13.502069"
           style="font-size:9.17222023px;text-align:start;text-anchor:start;fill:#f80000;fill-opacity:1;stroke-width:0.26458299px"
           id="tspan1056">Step link: Full bill of </tspan></tspan><tspan
         sodipodi:role="line"
         x="83.156494"
         y="22.871346"
         id="tspan1062"
         style="stroke-width:0.26458299px"><tspan
           x="83.156494"
           y="22.871346"
           style="font-size:9.17222023px;text-align:start;text-anchor:start;fill:#f80000;fill-opacity:1;stroke-width:0.26458299px"
           id="tspan1060">materials of linked page </tspan></tspan><tspan
         sodipodi:role="line"
         x="83.156494"
         y="32.240623"
         id="tspan1068"
         style="stroke-width:0.26458299px"><tspan
           x="83.156494"
           y="32.240623"
           style="font-size:9.17222023px;text-align:start;text-anchor:start;fill:#f80000;fill-opacity:1;stroke-width:0.26458299px"
           id="tspan1064">is counted</tspan><tspan
           dx="0"
           x="130.77322"
           y="32.240623"
           style="font-size:9.17222023px;text-align:start;text-anchor:start;fill:#f80000;fill-opacity:1;stroke-width:0.26458299px"
           id="tspan1066" /></tspan></text>
  </g>
  <g
     id="g1658"
     transform="translate(-13.278155,2.2736587)">
    <path
       inkscape:connector-curvature="0"
       id="path853-8-1"
       d="M 30,51.279787 H 72.33333"
       style="fill:none;fill-rule:evenodd;stroke:#0000ff;stroke-width:3.7650001;stroke-linecap:butt;stroke-linejoin:miter;stroke-miterlimit:4;stroke-dasharray:none;stroke-opacity:1;marker-end:url(#Arrow1Send-8-4)" />
    <text
       xml:space="preserve"
       style="font-style:normal;font-variant:normal;font-weight:normal;font-stretch:normal;font-size:7.05556011px;line-height:125%;font-family:sans-serif;-inkscape-font-specification:sans-serif;text-align:justify;letter-spacing:0px;word-spacing:0px;text-anchor:start;fill:#0000ff;fill-opacity:1;stroke:none;stroke-width:0.26458299px;stroke-linecap:butt;stroke-linejoin:miter;stroke-opacity:1"
       x="82.896736"
       y="45.329926"
       id="text1174"><tspan
         sodipodi:role="line"
         x="82.896736"
         y="45.329926"
         id="tspan1162"
         style="stroke-width:0.26458299px"><tspan
           x="82.896736"
           y="45.329926"
           style="font-size:9.17222023px;text-align:start;text-anchor:start;fill:#0000ff;fill-opacity:1;stroke-width:0.26458299px"
           id="tspan1160">Part link: Only linked item </tspan></tspan><tspan
         sodipodi:role="line"
         x="82.896736"
         y="54.699203"
         id="tspan1166"
         style="stroke-width:0.26458299px"><tspan
           x="82.896736"
           y="54.699203"
           style="font-size:9.17222023px;text-align:start;text-anchor:start;fill:#0000ff;fill-opacity:1;stroke-width:0.26458299px"
           id="tspan1164">is counted in bill of </tspan></tspan><tspan
         sodipodi:role="line"
         x="82.896736"
         y="64.068489"
         id="tspan1172"
         style="stroke-width:0.26458299px"><tspan
           x="82.896736"
           y="64.068489"
           style="font-size:9.17222023px;text-align:start;text-anchor:start;fill:#0000ff;fill-opacity:1;stroke-width:0.26458299px"
           id="tspan1168">materials.</tspan><tspan
           dx="0"
           x="128.90115"
           y="64.068489"
           style="font-size:9.17222023px;text-align:start;text-anchor:start;fill:#0000ff;fill-opacity:1;stroke-width:0.26458299px"
           id="tspan1170" /></tspan></text>
  </g>
  <rect
     style="opacity:1;fill:#ffffff;fill-opacity:1;stroke:#000000;stroke-width:2;stroke-linecap:round;stroke-linejoin:round;stroke-miterlimit:4;stroke-dasharray:none;stroke-dashoffset:0;stroke-opacity:1"
     id="rect815-2-9-0"
     width="121.70833"
     height="156.48215"
     x="28.910826"
     y="294.22684" />
  <text
     id="text1436"
     y="317.13651"
     x="34.202358"
     style="font-style:normal;font-variant:normal;font-weight:normal;font-stretch:normal;font-size:7.05556011px;line-height:125%;font-family:sans-serif;-inkscape-font-specification:sans-serif;text-align:justify;letter-spacing:0px;word-spacing:0px;text-anchor:start;fill:#000000;fill-opacity:1;stroke:none;stroke-width:0.26458299px;stroke-linecap:butt;stroke-linejoin:miter;stroke-opacity:1"
     xml:space="preserve"><tspan
       style="font-size:9.17222214px;stroke-width:0.26458299px"
       id="tspan1426"
       y="317.13651"
       x="34.202358"
       sodipodi:role="line"><tspan
         id="tspan1422"
         style="font-style:normal;font-variant:normal;font-weight:normal;font-stretch:normal;font-size:9.17222214px;font-family:monospace;-inkscape-font-specification:monospace;text-align:start;text-anchor:start;stroke-width:0.26458299px"
         y="317.13651"
         x="34.202358"># PLA</tspan></tspan><tspan
       style="font-size:9.17222214px;stroke-width:0.26458299px"
       y="325.95596"
       x="34.202358"
       sodipodi:role="line"
       id="tspan1244" /><tspan
       id="tspan1430"
       y="335.35907"
       x="34.202358"
       sodipodi:role="line"
       style="font-size:9.17222214px">Fillament for printing</tspan><tspan
       style="font-size:9.17222214px;stroke-width:0.26458299px"
       id="tspan1434"
       y="344.17853"
       x="34.202358"
       sodipodi:role="line" /></text>
  <flowRoot
     xml:space="preserve"
     id="flowRoot937"
     style="font-style:normal;font-variant:normal;font-weight:normal;font-stretch:normal;font-size:26.66670036px;line-height:125%;font-family:sans-serif;-inkscape-font-specification:sans-serif;text-align:justify;letter-spacing:0px;word-spacing:0px;text-anchor:start;fill:#000000;fill-opacity:1;stroke:none;stroke-width:1px;stroke-linecap:butt;stroke-linejoin:miter;stroke-opacity:1"
     transform="translate(529.06959,96.009104)"><flowRegion
       id="flowRegion939"><rect
         id="rect941"
         width="325.71426"
         height="128.57143"
         x="-908.57141"
         y="22.519686" /></flowRegion><flowPara
       id="flowPara943" /></flowRoot>  <text
     xml:space="preserve"
     style="font-style:normal;font-variant:normal;font-weight:normal;font-stretch:normal;font-size:10.58333397px;line-height:1.25;font-family:monospace;-inkscape-font-specification:monospace;letter-spacing:0px;word-spacing:0px;stroke-width:0.26458335"
     x="117.56789"
     y="161.51093"
     id="text3990"><tspan
       sodipodi:role="line"
       id="tspan3988"
       x="117.56789"
       y="161.51093"
       style="font-size:9.17222214px;stroke-width:0.26458335"># Printing parts</tspan><tspan
       sodipodi:role="line"
       x="117.56789"
       y="174.7401"
       style="font-size:9.17222214px;stroke-width:0.26458335"
       id="tspan3992" /><tspan
       sodipodi:role="line"
       x="117.56789"
       y="187.96925"
       style="font-size:9.17222214px;stroke-width:0.26458335"
       id="tspan3996">From the design files</tspan><tspan
       sodipodi:role="line"
       x="117.56789"
       y="201.19843"
       style="font-size:9.17222214px;stroke-width:0.26458335"
       id="tspan218">print the parts from</tspan><tspan
       sodipodi:role="line"
       x="117.56789"
       y="214.4276"
       style="font-size:9.17222214px;stroke-width:0.26458335"
       id="tspan3998"><tspan
   style="fill:#0000ff;fill-opacity:1"
   id="tspan4887">[PLA]{Qty: 200g} </tspan>Using</tspan><tspan
       sodipodi:role="line"
       x="117.56789"
       y="227.65677"
       style="font-size:9.17222214px;stroke-width:0.26458335"
       id="tspan1140">a <tspan
   style="fill:#0000ff;fill-opacity:1"
   id="tspan1144">[RepRep]{Qty: 1}</tspan>.</tspan><tspan
       sodipodi:role="line"
       x="117.56789"
       y="240.88593"
       style="font-size:9.17222214px;stroke-width:0.26458335"
       id="tspan4000" /><tspan
       sodipodi:role="line"
       x="117.56789"
       y="254.1151"
       style="font-size:9.17222214px;fill:#000000;fill-opacity:1;stroke-width:0.26458335"
       id="tspan4010">You now have some</tspan><tspan
       sodipodi:role="line"
       x="117.56789"
       y="267.34427"
       style="font-size:9.17222214px;fill:#ff0c80;fill-opacity:1;stroke-width:0.26458335"
       id="tspan225">[platic parts]{output,</tspan><tspan
       sodipodi:role="line"
       x="117.56789"
       y="280.57343"
       style="font-size:9.17222214px;fill:#ff0c80;fill-opacity:1;stroke-width:0.26458335"
       id="tspan4879">Qty: Lots}</tspan></text>
  <text
     xml:space="preserve"
     style="font-style:normal;font-variant:normal;font-weight:normal;font-stretch:normal;font-size:10.58333397px;line-height:1.25;font-family:monospace;-inkscape-font-specification:monospace;letter-spacing:0px;word-spacing:0px;fill:#000000;fill-opacity:1;stroke-width:0.26458335"
     x="419.84149"
     y="162.24144"
     id="text3990-8"><tspan
       sodipodi:role="line"
       x="419.84149"
       y="162.24144"
       style="font-size:9.17222214px;fill:#000000;fill-opacity:1;stroke-width:0.26458335"
       id="tspan4879-8"># Assemble</tspan><tspan
       sodipodi:role="line"
       x="419.84149"
       y="175.47061"
       style="font-size:9.17222214px;fill:#000000;fill-opacity:1;stroke-width:0.26458335"
       id="tspan1428" /><tspan
       sodipodi:role="line"
       x="419.84149"
       y="188.69977"
       style="font-size:9.17222214px;fill:#000000;fill-opacity:1;stroke-width:0.26458335"
       id="tspan1433">Assemble the <tspan
   style="fill:#ff0c80;fill-opacity:1"
   id="tspan1457">[plastic</tspan></tspan><tspan
       sodipodi:role="line"
       x="419.84149"
       y="201.92894"
       style="font-size:9.17222214px;fill:#ff0c80;fill-opacity:1;stroke-width:0.26458335"
       id="tspan237">parts]{Qty: Lots}</tspan><tspan
       sodipodi:role="line"
       x="419.84149"
       y="215.15811"
       style="font-size:9.17222214px;fill:#0000ff;fill-opacity:1;stroke-width:0.26458335"
       id="tspan1435"><tspan
   id="tspan1273"
   style="font-size:9.17222214px;fill:#000000;fill-opacity:1;stroke-width:0.26458335">with </tspan>[other parts]</tspan><tspan
       sodipodi:role="line"
       x="419.84149"
       y="228.38728"
       style="font-size:9.17222214px;fill:#0000ff;fill-opacity:1;stroke-width:0.26458335"
       id="tspan1439">{Qty: some}<tspan
   style="fill:#000003;fill-opacity:1"
   id="tspan1138">.</tspan></tspan></text>
  <g
     id="g3139"
     transform="translate(0,-1.0810064)">
    <path
       inkscape:connector-curvature="0"
       id="path853-8-1-0"
       d="M 16.721845,84.650991 H 59.055174"
       style="fill:none;fill-rule:evenodd;stroke:#ff0c80;stroke-width:3.76502085;stroke-linecap:butt;stroke-linejoin:miter;stroke-miterlimit:4;stroke-dasharray:none;stroke-opacity:1;marker-start:url(#Arrow1Sstart);marker-end:url(#marker1945)" />
    <text
       xml:space="preserve"
       style="font-style:normal;font-variant:normal;font-weight:normal;font-stretch:normal;font-size:7.05556011px;line-height:125%;font-family:sans-serif;-inkscape-font-specification:sans-serif;text-align:justify;letter-spacing:0px;word-spacing:0px;text-anchor:start;fill:#ff0c80;fill-opacity:1;stroke:none;stroke-width:0.26458299px;stroke-linecap:butt;stroke-linejoin:miter;stroke-opacity:1"
       x="69.618584"
       y="78.701126"
       id="text1174-3"><tspan
         sodipodi:role="line"
         x="69.618584"
         y="78.701126"
         id="tspan1172-3"
         style="font-size:9.172225px;fill:#ff0c80;fill-opacity:1;stroke-width:0.26458299px"><tspan
           x="69.618584"
           y="78.701126"
           style="font-size:9.172225px;text-align:start;text-anchor:start;fill:#ff0c80;fill-opacity:1;stroke-width:0.26458299px"
           id="tspan1160-1"
           dx="0 0 0 0 0 0 0 0 0 0 0 0 0 0 0 0 0 0 0 0 0 0 0 0 0">Output link: A part link</tspan></tspan><tspan
         sodipodi:role="line"
         x="69.618584"
         y="88.104256"
         style="font-size:9.172225px;fill:#ff0c80;fill-opacity:1;stroke-width:0.26458299px"
         id="tspan2127">to something defined in</tspan><tspan
         sodipodi:role="line"
         x="69.618584"
         y="97.507385"
         style="font-size:9.172225px;fill:#ff0c80;fill-opacity:1;stroke-width:0.26458299px"
         id="tspan2129">another step.</tspan></text>
  </g>
  <path
     sodipodi:nodetypes="cc"
     style="fill:none;fill-rule:evenodd;stroke:#ff0c80;stroke-width:3.76502085;stroke-linecap:butt;stroke-linejoin:miter;stroke-miterlimit:4;stroke-dasharray:none;stroke-opacity:1;marker-start:url(#Arrow1Sstart-6);marker-end:url(#marker1945-5)"
     d="M 242.26232,262.54544 413.84701,201.25723"
     id="path853-8-1-0-4"
     inkscape:connector-curvature="0" />
  <text
     xml:space="preserve"
     style="font-style:normal;font-variant:normal;font-weight:normal;font-stretch:normal;font-size:10.58333397px;line-height:1.25;font-family:monospace;-inkscape-font-specification:monospace;letter-spacing:0px;word-spacing:0px;stroke-width:0.26458335"
     x="269.21515"
     y="34.547207"
     id="text3134"><tspan
       sodipodi:role="line"
       id="tspan3132"
       x="269.21515"
       y="34.547207"
       style="font-size:9.17222214px;stroke-width:0.26458335"># RepRap Printer</tspan><tspan
       sodipodi:role="line"
       x="269.21515"
       y="47.776375"
       style="font-size:9.17222214px;stroke-width:0.26458335"
       id="tspan3140" /><tspan
       sodipodi:role="line"
       x="269.21515"
       y="61.005543"
       style="font-size:9.17222214px;stroke-width:0.26458335"
       id="tspan3142">You can [buy a RepRap]</tspan><tspan
       sodipodi:role="line"
       x="269.21515"
       y="74.234711"
       style="font-size:9.17222214px;stroke-width:0.26458335"
       id="tspan205">but you can also make</tspan><tspan
       sodipodi:role="line"
       x="269.21515"
       y="87.463875"
       style="font-size:9.17222214px;stroke-width:0.26458335"
       id="tspan209">one! To make one you</tspan><tspan
       sodipodi:role="line"
       x="269.21515"
       y="100.69305"
       style="font-size:9.17222214px;stroke-width:0.26458335"
       id="tspan213">need to</tspan><tspan
       sodipodi:role="line"
       x="269.21515"
       y="113.92221"
       style="font-size:9.17222214px;stroke-width:0.26458335"
       id="tspan3144">* <tspan
   style="fill:#ff0000;fill-opacity:1"
   id="tspan3154">[Print parts]{step}</tspan></tspan><tspan
       sodipodi:role="line"
       x="269.21515"
       y="127.15138"
       style="font-size:9.17222214px;stroke-width:0.26458335"
       id="tspan3146">* <tspan
   style="fill:#ff0000;fill-opacity:1"
   id="tspan3156">[Assemble]{step}</tspan></tspan></text>
  <path
     style="opacity:1;vector-effect:none;fill:none;fill-opacity:1;stroke:#0000fe;stroke-width:3.23585439;stroke-linecap:butt;stroke-linejoin:miter;stroke-miterlimit:4;stroke-dasharray:none;stroke-dashoffset:0;stroke-opacity:1;marker-end:url(#Arrow1Send-8-4-4)"
     d="m 218.39079,221.05242 c 75.42398,4.17576 25.2253,-151.814335 24.41739,-185.614279 -0.8079,-33.7999432 25.7807,-35.18252791 41.78754,-21.557821"
     id="path1279"
     inkscape:connector-curvature="0"
     sodipodi:nodetypes="czc" />
  <rect
     style="opacity:1;fill:#ffffff;fill-opacity:1;stroke:#000000;stroke-width:2;stroke-linecap:round;stroke-linejoin:round;stroke-miterlimit:4;stroke-dasharray:none;stroke-dashoffset:0;stroke-opacity:1"
     id="rect815-2-9-0-3"
     width="121.70833"
     height="156.48215"
     x="268.681"
     y="294.15781" />
  <text
     id="text1436-6"
     y="317.06747"
     x="273.97253"
     style="font-style:normal;font-variant:normal;font-weight:normal;font-stretch:normal;font-size:7.05556011px;line-height:125%;font-family:sans-serif;-inkscape-font-specification:sans-serif;text-align:justify;letter-spacing:0px;word-spacing:0px;text-anchor:start;fill:#000000;fill-opacity:1;stroke:none;stroke-width:0.26458299px;stroke-linecap:butt;stroke-linejoin:miter;stroke-opacity:1"
     xml:space="preserve"><tspan
       style="font-size:9.17222214px;stroke-width:0.26458299px"
       id="tspan1426-7"
       y="317.06747"
       x="273.97253"
       sodipodi:role="line"><tspan
         id="tspan1422-5"
         style="font-style:normal;font-variant:normal;font-weight:normal;font-stretch:normal;font-size:9.17222214px;font-family:monospace;-inkscape-font-specification:monospace;text-align:start;text-anchor:start;stroke-width:0.26458299px"
         y="317.06747"
         x="273.97253"># Buy a RepRap</tspan></tspan><tspan
       style="font-size:9.17222214px;stroke-width:0.26458299px"
       y="325.88693"
       x="273.97253"
       sodipodi:role="line"
       id="tspan1244-3" /><tspan
       id="tspan1430-5"
       y="335.29004"
       x="273.97253"
       sodipodi:role="line"
       style="font-size:9.17222214px;stroke-width:0.26458299px">This could give lots of</tspan><tspan
       y="344.69318"
       x="273.97253"
       sodipodi:role="line"
       style="font-size:9.17222214px;stroke-width:0.26458299px"
       id="tspan2234">options of different places</tspan><tspan
       y="354.09631"
       x="273.97253"
       sodipodi:role="line"
       style="font-size:9.17222214px;stroke-width:0.26458299px"
       id="tspan2236">to buy RepRaps.</tspan><tspan
       style="font-size:9.17222214px;stroke-width:0.26458299px"
       id="tspan1434-6"
       y="362.91577"
       x="273.97253"
       sodipodi:role="line" /></text>
  <path
     style="opacity:1;vector-effect:none;fill:none;fill-opacity:1;stroke:#000025;stroke-width:3.23585439;stroke-linecap:butt;stroke-linejoin:miter;stroke-miterlimit:4;stroke-dasharray:none;stroke-dashoffset:0;stroke-opacity:1;marker-end:url(#marker2124)"
     d="m 389.53406,65.713704 c 32.3156,32.342556 9.4359,180.070616 -5.02273,221.760896"
     id="path1279-1"
     inkscape:connector-curvature="0"
     sodipodi:nodetypes="cc" />
  <g
     id="g1680-0"
     transform="translate(-13.278155,96.15724)">
    <g
       id="g3088">
      <path
         style="fill:none;fill-rule:evenodd;stroke:#010000;stroke-width:3.76502097;stroke-linecap:butt;stroke-linejoin:miter;stroke-miterlimit:4;stroke-dasharray:none;stroke-opacity:1;marker-end:url(#marker1336)"
         d="M 30,19.451918 H 72.33333"
         id="path853-8-9"
         inkscape:connector-curvature="0" />
      <text
         id="text1070-3"
         y="21.823349"
         x="83.156494"
         style="font-style:normal;font-variant:normal;font-weight:normal;font-stretch:normal;font-size:9.17222214px;line-height:125%;font-family:sans-serif;-inkscape-font-specification:sans-serif;text-align:justify;letter-spacing:0px;word-spacing:0px;text-anchor:start;fill:#010000;fill-opacity:1;stroke:none;stroke-width:0.26458299px;stroke-linecap:butt;stroke-linejoin:miter;stroke-opacity:1;"
         xml:space="preserve"><tspan
           style="stroke-width:0.26458299px;fill:#010000;fill-opacity:1;"
           id="tspan1068-6"
           y="21.823349"
           x="83.156494"
           sodipodi:role="line">Standard Hyperlink</tspan></text>
    </g>
  </g>
</svg>
