<?xml version="1.0" encoding="UTF-8" standalone="no"?>
<svg
   xmlns:dc="http://purl.org/dc/elements/1.1/"
   xmlns:cc="http://creativecommons.org/ns#"
   xmlns:rdf="http://www.w3.org/1999/02/22-rdf-syntax-ns#"
   xmlns:svg="http://www.w3.org/2000/svg"
   xmlns="http://www.w3.org/2000/svg"
   xmlns:sodipodi="http://sodipodi.sourceforge.net/DTD/sodipodi-0.dtd"
   xmlns:inkscape="http://www.inkscape.org/namespaces/inkscape"
   inkscape:version="0.92.5 (2060ec1f9f, 2020-04-08)"
   sodipodi:docname="Variations.svg"
   id="svg8"
   version="1.1"
   viewBox="0 0 680.72125 552.54524"
   height="552.54523mm"
   width="680.72125mm">
  <sodipodi:namedview
     inkscape:document-rotation="0"
     inkscape:current-layer="svg8"
     inkscape:window-maximized="1"
     inkscape:window-y="0"
     inkscape:window-x="0"
     inkscape:cy="758.0685"
     inkscape:cx="1057.1918"
     inkscape:zoom="0.30831309"
     showgrid="false"
     id="namedview137"
     inkscape:window-height="827"
     inkscape:window-width="1600"
     inkscape:pageshadow="2"
     inkscape:pageopacity="0"
     guidetolerance="10"
     gridtolerance="10"
     objecttolerance="10"
     borderopacity="1"
     bordercolor="#666666"
     pagecolor="#ffffff"
     fit-margin-top="10"
     fit-margin-left="10"
     fit-margin-right="10"
     fit-margin-bottom="10" />
  <defs
     id="defs2">
    <marker
       inkscape:stockid="Arrow1Send"
       orient="auto"
       refY="0"
       refX="0"
       id="marker1714"
       style="overflow:visible"
       inkscape:isstock="true">
      <path
         id="path1712"
         d="M 0,0 5,-5 -12.5,0 5,5 Z"
         style="fill:#000000;fill-opacity:1;fill-rule:evenodd;stroke:#000000;stroke-width:1.00000003pt;stroke-opacity:1"
         transform="matrix(-0.2,0,0,-0.2,-1.2,0)"
         inkscape:connector-curvature="0" />
    </marker>
    <marker
       inkscape:stockid="Arrow1Send"
       orient="auto"
       refY="0"
       refX="0"
       id="marker1578"
       style="overflow:visible"
       inkscape:isstock="true">
      <path
         id="path1330"
         d="M 0,0 5,-5 -12.5,0 5,5 Z"
         style="fill:#000000;fill-opacity:1;fill-rule:evenodd;stroke:#000000;stroke-width:1.00000003pt;stroke-opacity:1"
         transform="matrix(-0.2,0,0,-0.2,-1.2,0)"
         inkscape:connector-curvature="0" />
    </marker>
    <marker
       inkscape:stockid="Arrow1Sstart"
       orient="auto"
       refY="0"
       refX="0"
       id="Arrow1Sstart"
       style="overflow:visible"
       inkscape:isstock="true">
      <path
         id="path1694"
         d="M 0,0 5,-5 -12.5,0 5,5 Z"
         style="fill:#ff0c80;fill-opacity:1;fill-rule:evenodd;stroke:#ff0c80;stroke-width:1.00000003pt;stroke-opacity:1"
         transform="matrix(0.2,0,0,0.2,1.2,0)"
         inkscape:connector-curvature="0" />
    </marker>
    <marker
       inkscape:stockid="Arrow1Send"
       orient="auto"
       refY="0"
       refX="0"
       id="marker1945"
       style="overflow:visible"
       inkscape:isstock="true">
      <path
         id="path1697"
         d="M 0,0 5,-5 -12.5,0 5,5 Z"
         style="fill:#ff0c80;fill-opacity:1;fill-rule:evenodd;stroke:#ff0c80;stroke-width:1.00000003pt;stroke-opacity:1"
         transform="matrix(-0.2,0,0,-0.2,-1.2,0)"
         inkscape:connector-curvature="0" />
    </marker>
    <marker
       style="overflow:visible"
       id="Arrow1Send"
       refX="0"
       refY="0"
       orient="auto">
      <path
         transform="matrix(-0.2,0,0,-0.2,-1.2,0)"
         style="fill:#ff0000;fill-opacity:1;fill-rule:evenodd;stroke:#ff0000;stroke-width:1.00000003pt;stroke-opacity:1"
         d="M 0,0 5,-5 -12.5,0 5,5 Z"
         id="path870"
         inkscape:connector-curvature="0" />
    </marker>
    <marker
       style="overflow:visible"
       id="Arrow1Send-3"
       refX="0"
       refY="0"
       orient="auto">
      <path
         transform="matrix(-0.2,0,0,-0.2,-1.2,0)"
         style="fill:#ff0000;fill-opacity:1;fill-rule:evenodd;stroke:#ff0000;stroke-width:1.00000003pt;stroke-opacity:1"
         d="M 0,0 5,-5 -12.5,0 5,5 Z"
         id="path870-6"
         inkscape:connector-curvature="0" />
    </marker>
    <marker
       style="overflow:visible"
       id="Arrow1Send-1"
       refX="0"
       refY="0"
       orient="auto">
      <path
         transform="matrix(-0.2,0,0,-0.2,-1.2,0)"
         style="fill:#0000ff;fill-opacity:1;fill-rule:evenodd;stroke:#0000ff;stroke-width:1.00000003pt;stroke-opacity:1"
         d="M 0,0 5,-5 -12.5,0 5,5 Z"
         id="path870-5"
         inkscape:connector-curvature="0" />
    </marker>
    <marker
       style="overflow:visible"
       id="Arrow1Send-1-4"
       refX="0"
       refY="0"
       orient="auto">
      <path
         transform="matrix(-0.2,0,0,-0.2,-1.2,0)"
         style="fill:#0000ff;fill-opacity:1;fill-rule:evenodd;stroke:#0000ff;stroke-width:1.00000003pt;stroke-opacity:1"
         d="M 0,0 5,-5 -12.5,0 5,5 Z"
         id="path870-5-7"
         inkscape:connector-curvature="0" />
    </marker>
    <marker
       style="overflow:visible"
       id="Arrow1Send-1-4-5"
       refX="0"
       refY="0"
       orient="auto">
      <path
         transform="matrix(-0.2,0,0,-0.2,-1.2,0)"
         style="fill:#0000ff;fill-opacity:1;fill-rule:evenodd;stroke:#0000ff;stroke-width:1.00000003pt;stroke-opacity:1"
         d="M 0,0 5,-5 -12.5,0 5,5 Z"
         id="path870-5-7-6"
         inkscape:connector-curvature="0" />
    </marker>
    <marker
       style="overflow:visible"
       id="Arrow1Send-1-4-5-3"
       refX="0"
       refY="0"
       orient="auto">
      <path
         transform="matrix(-0.2,0,0,-0.2,-1.2,0)"
         style="fill:#0000ff;fill-opacity:1;fill-rule:evenodd;stroke:#0000ff;stroke-width:1.00000003pt;stroke-opacity:1"
         d="M 0,0 5,-5 -12.5,0 5,5 Z"
         id="path870-5-7-6-7"
         inkscape:connector-curvature="0" />
    </marker>
    <marker
       style="overflow:visible"
       id="Arrow1Send-1-4-5-5"
       refX="0"
       refY="0"
       orient="auto">
      <path
         transform="matrix(-0.2,0,0,-0.2,-1.2,0)"
         style="fill:#000000;fill-opacity:1;fill-rule:evenodd;stroke:#000000;stroke-width:1.00000003pt;stroke-opacity:1"
         d="M 0,0 5,-5 -12.5,0 5,5 Z"
         id="path870-5-7-6-2"
         inkscape:connector-curvature="0" />
    </marker>
    <marker
       style="overflow:visible"
       id="Arrow1Send-8"
       refX="0"
       refY="0"
       orient="auto">
      <path
         transform="matrix(-0.2,0,0,-0.2,-1.2,0)"
         style="fill:#ff0000;fill-opacity:1;fill-rule:evenodd;stroke:#ff0000;stroke-width:1.00000003pt;stroke-opacity:1"
         d="M 0,0 5,-5 -12.5,0 5,5 Z"
         id="path870-68"
         inkscape:connector-curvature="0" />
    </marker>
    <marker
       style="overflow:visible"
       id="Arrow1Send-8-4"
       refX="0"
       refY="0"
       orient="auto">
      <path
         transform="matrix(-0.2,0,0,-0.2,-1.2,0)"
         style="fill:#0000ff;fill-opacity:1;fill-rule:evenodd;stroke:#0000ff;stroke-width:1.00000003pt;stroke-opacity:1"
         d="M 0,0 5,-5 -12.5,0 5,5 Z"
         id="path870-68-3"
         inkscape:connector-curvature="0" />
    </marker>
    <marker
       style="overflow:visible"
       id="Arrow1Send-8-4-4"
       refX="0"
       refY="0"
       orient="auto">
      <path
         inkscape:connector-curvature="0"
         transform="matrix(-0.2,0,0,-0.2,-1.2,0)"
         style="fill:#0000ff;fill-opacity:1;fill-rule:evenodd;stroke:#0000ff;stroke-width:1.00000003pt;stroke-opacity:1"
         d="M 0,0 5,-5 -12.5,0 5,5 Z"
         id="path870-68-3-5" />
    </marker>
    <marker
       inkscape:stockid="Arrow1Sstart"
       orient="auto"
       refY="0"
       refX="0"
       id="Arrow1Sstart-6"
       style="overflow:visible"
       inkscape:isstock="true">
      <path
         inkscape:connector-curvature="0"
         id="path1694-1"
         d="M 0,0 5,-5 -12.5,0 5,5 Z"
         style="fill:#ff0c80;fill-opacity:1;fill-rule:evenodd;stroke:#ff0c80;stroke-width:1.00000003pt;stroke-opacity:1"
         transform="matrix(0.2,0,0,0.2,1.2,0)" />
    </marker>
    <marker
       inkscape:stockid="Arrow1Send"
       orient="auto"
       refY="0"
       refX="0"
       id="marker1945-5"
       style="overflow:visible"
       inkscape:isstock="true">
      <path
         inkscape:connector-curvature="0"
         id="path1697-5"
         d="M 0,0 5,-5 -12.5,0 5,5 Z"
         style="fill:#ff0c80;fill-opacity:1;fill-rule:evenodd;stroke:#ff0c80;stroke-width:1.00000003pt;stroke-opacity:1"
         transform="matrix(-0.2,0,0,-0.2,-1.2,0)" />
    </marker>
    <marker
       inkscape:stockid="Arrow1Send"
       orient="auto"
       refY="0"
       refX="0"
       id="marker1336"
       style="overflow:visible"
       inkscape:isstock="true">
      <path
         inkscape:connector-curvature="0"
         id="path1088"
         d="M 0,0 5,-5 -12.5,0 5,5 Z"
         style="fill:#010000;fill-opacity:1;fill-rule:evenodd;stroke:#010000;stroke-width:1.00000003pt;stroke-opacity:1"
         transform="matrix(-0.2,0,0,-0.2,-1.2,0)" />
    </marker>
    <marker
       inkscape:stockid="Arrow1Sstart"
       orient="auto"
       refY="0"
       refX="0"
       id="Arrow1Sstart-3"
       style="overflow:visible"
       inkscape:isstock="true">
      <path
         id="path1694-6"
         d="M 0,0 5,-5 -12.5,0 5,5 Z"
         style="fill:#ff0c80;fill-opacity:1;fill-rule:evenodd;stroke:#ff0c80;stroke-width:1.00000003pt;stroke-opacity:1"
         transform="matrix(0.2,0,0,0.2,1.2,0)"
         inkscape:connector-curvature="0" />
    </marker>
    <marker
       inkscape:stockid="Arrow1Send"
       orient="auto"
       refY="0"
       refX="0"
       id="marker1945-7"
       style="overflow:visible"
       inkscape:isstock="true">
      <path
         id="path1697-53"
         d="M 0,0 5,-5 -12.5,0 5,5 Z"
         style="fill:#ff0c80;fill-opacity:1;fill-rule:evenodd;stroke:#ff0c80;stroke-width:1.00000003pt;stroke-opacity:1"
         transform="matrix(-0.2,0,0,-0.2,-1.2,0)"
         inkscape:connector-curvature="0" />
    </marker>
    <marker
       style="overflow:visible"
       id="Arrow1Send-8-4-5"
       refX="0"
       refY="0"
       orient="auto">
      <path
         transform="matrix(-0.2,0,0,-0.2,-1.2,0)"
         style="fill:#0000ff;fill-opacity:1;fill-rule:evenodd;stroke:#0000ff;stroke-width:1.00000003pt;stroke-opacity:1"
         d="M 0,0 5,-5 -12.5,0 5,5 Z"
         id="path870-68-3-6"
         inkscape:connector-curvature="0" />
    </marker>
    <marker
       style="overflow:visible"
       id="Arrow1Send-8-2"
       refX="0"
       refY="0"
       orient="auto">
      <path
         transform="matrix(-0.2,0,0,-0.2,-1.2,0)"
         style="fill:#ff0000;fill-opacity:1;fill-rule:evenodd;stroke:#ff0000;stroke-width:1.00000003pt;stroke-opacity:1"
         d="M 0,0 5,-5 -12.5,0 5,5 Z"
         id="path870-68-9"
         inkscape:connector-curvature="0" />
    </marker>
    <marker
       inkscape:stockid="Arrow1Sstart"
       orient="auto"
       refY="0"
       refX="0"
       id="Arrow1Sstart-3-6"
       style="overflow:visible"
       inkscape:isstock="true">
      <path
         id="path1694-6-3"
         d="M 0,0 5,-5 -12.5,0 5,5 Z"
         style="fill:#ff0c80;fill-opacity:1;fill-rule:evenodd;stroke:#ff0c80;stroke-width:1.00000003pt;stroke-opacity:1"
         transform="matrix(0.2,0,0,0.2,1.2,0)"
         inkscape:connector-curvature="0" />
    </marker>
    <marker
       inkscape:stockid="Arrow1Send"
       orient="auto"
       refY="0"
       refX="0"
       id="marker1945-7-9"
       style="overflow:visible"
       inkscape:isstock="true">
      <path
         id="path1697-53-4"
         d="M 0,0 5,-5 -12.5,0 5,5 Z"
         style="fill:#ff0c80;fill-opacity:1;fill-rule:evenodd;stroke:#ff0c80;stroke-width:1.00000003pt;stroke-opacity:1"
         transform="matrix(-0.2,0,0,-0.2,-1.2,0)"
         inkscape:connector-curvature="0" />
    </marker>
    <marker
       inkscape:stockid="Arrow1Sstart"
       orient="auto"
       refY="0"
       refX="0"
       id="Arrow1Sstart-6-1"
       style="overflow:visible"
       inkscape:isstock="true">
      <path
         inkscape:connector-curvature="0"
         id="path1694-1-2"
         d="M 0,0 5,-5 -12.5,0 5,5 Z"
         style="fill:#ff0c80;fill-opacity:1;fill-rule:evenodd;stroke:#ff0c80;stroke-width:1.00000003pt;stroke-opacity:1"
         transform="matrix(0.2,0,0,0.2,1.2,0)" />
    </marker>
    <marker
       inkscape:stockid="Arrow1Send"
       orient="auto"
       refY="0"
       refX="0"
       id="marker1945-5-9"
       style="overflow:visible"
       inkscape:isstock="true">
      <path
         inkscape:connector-curvature="0"
         id="path1697-5-3"
         d="M 0,0 5,-5 -12.5,0 5,5 Z"
         style="fill:#ff0c80;fill-opacity:1;fill-rule:evenodd;stroke:#ff0c80;stroke-width:1.00000003pt;stroke-opacity:1"
         transform="matrix(-0.2,0,0,-0.2,-1.2,0)" />
    </marker>
    <marker
       style="overflow:visible"
       id="Arrow1Send-8-2-9"
       refX="0"
       refY="0"
       orient="auto">
      <path
         transform="matrix(-0.2,0,0,-0.2,-1.2,0)"
         style="fill:#ff0000;fill-opacity:1;fill-rule:evenodd;stroke:#ff0000;stroke-width:1.00000003pt;stroke-opacity:1"
         d="M 0,0 5,-5 -12.5,0 5,5 Z"
         id="path870-68-9-6"
         inkscape:connector-curvature="0" />
    </marker>
    <marker
       style="overflow:visible"
       id="Arrow1Send-8-2-8"
       refX="0"
       refY="0"
       orient="auto">
      <path
         transform="matrix(-0.2,0,0,-0.2,-1.2,0)"
         style="fill:#ff0000;fill-opacity:1;fill-rule:evenodd;stroke:#ff0000;stroke-width:1.00000003pt;stroke-opacity:1"
         d="M 0,0 5,-5 -12.5,0 5,5 Z"
         id="path870-68-9-5"
         inkscape:connector-curvature="0" />
    </marker>
    <marker
       style="overflow:visible"
       id="Arrow1Send-8-2-9-1"
       refX="0"
       refY="0"
       orient="auto">
      <path
         transform="matrix(-0.2,0,0,-0.2,-1.2,0)"
         style="fill:#ff0000;fill-opacity:1;fill-rule:evenodd;stroke:#ff0000;stroke-width:1.00000003pt;stroke-opacity:1"
         d="M 0,0 5,-5 -12.5,0 5,5 Z"
         id="path870-68-9-6-1"
         inkscape:connector-curvature="0" />
    </marker>
    <marker
       style="overflow:visible"
       id="Arrow1Send-8-2-9-1-8"
       refX="0"
       refY="0"
       orient="auto">
      <path
         transform="matrix(-0.2,0,0,-0.2,-1.2,0)"
         style="fill:#ff0000;fill-opacity:1;fill-rule:evenodd;stroke:#ff0000;stroke-width:1.00000003pt;stroke-opacity:1"
         d="M 0,0 5,-5 -12.5,0 5,5 Z"
         id="path870-68-9-6-1-1"
         inkscape:connector-curvature="0" />
    </marker>
    <marker
       style="overflow:visible"
       id="Arrow1Send-8-2-9-1-3"
       refX="0"
       refY="0"
       orient="auto">
      <path
         transform="matrix(-0.2,0,0,-0.2,-1.2,0)"
         style="fill:#ff0000;fill-opacity:1;fill-rule:evenodd;stroke:#ff0000;stroke-width:1.00000003pt;stroke-opacity:1"
         d="M 0,0 5,-5 -12.5,0 5,5 Z"
         id="path870-68-9-6-1-0"
         inkscape:connector-curvature="0" />
    </marker>
    <marker
       style="overflow:visible"
       id="Arrow1Send-8-2-9-1-4"
       refX="0"
       refY="0"
       orient="auto">
      <path
         transform="matrix(-0.2,0,0,-0.2,-1.2,0)"
         style="fill:#ff0000;fill-opacity:1;fill-rule:evenodd;stroke:#ff0000;stroke-width:1.00000003pt;stroke-opacity:1"
         d="M 0,0 5,-5 -12.5,0 5,5 Z"
         id="path870-68-9-6-1-4"
         inkscape:connector-curvature="0" />
    </marker>
  </defs>
  <metadata
     id="metadata5">
    <rdf:RDF>
      <cc:Work
         rdf:about="">
        <dc:format>image/svg+xml</dc:format>
        <dc:type
           rdf:resource="http://purl.org/dc/dcmitype/StillImage" />
        <dc:title></dc:title>
      </cc:Work>
    </rdf:RDF>
  </metadata>
  <rect
     style="opacity:1;fill:#ffffff;fill-opacity:1;stroke:#000000;stroke-width:2;stroke-linecap:round;stroke-linejoin:round;stroke-miterlimit:4;stroke-dasharray:none;stroke-dashoffset:0;stroke-opacity:1"
     id="rect815-2-2-9-6-6"
     width="125.99915"
     height="156.48215"
     x="489.20102"
     y="357.0015" />
  <g
     id="g343"
     transform="translate(122.4961,-6.3330995)">
    <g
       transform="translate(-135.77425,9.4773065)"
       id="g1680-1">
      <path
         style="fill:none;fill-rule:evenodd;stroke:#ff0000;stroke-width:3.7650001;stroke-linecap:butt;stroke-linejoin:miter;stroke-miterlimit:4;stroke-dasharray:none;stroke-opacity:1;marker-end:url(#Arrow1Send-8-2)"
         d="M 30,19.451918 H 72.33333"
         id="path853-8-2"
         inkscape:connector-curvature="0" />
      <text
         id="text1070-7"
         y="13.502069"
         x="83.156494"
         style="font-style:normal;font-variant:normal;font-weight:normal;font-stretch:normal;font-size:7.05556011px;line-height:125%;font-family:sans-serif;-inkscape-font-specification:sans-serif;text-align:justify;letter-spacing:0px;word-spacing:0px;text-anchor:start;fill:#f80000;fill-opacity:1;stroke:none;stroke-width:0.26458299px;stroke-linecap:butt;stroke-linejoin:miter;stroke-opacity:1"
         xml:space="preserve"><tspan
           style="stroke-width:0.26458299px"
           id="tspan1058-0"
           y="13.502069"
           x="83.156494"
           sodipodi:role="line"><tspan
             id="tspan1056-9"
             style="font-size:9.17222023px;text-align:start;text-anchor:start;fill:#f80000;fill-opacity:1;stroke-width:0.26458299px"
             y="13.502069"
             x="83.156494">Step link: Full bill of </tspan></tspan><tspan
           style="stroke-width:0.26458299px"
           id="tspan1062-3"
           y="22.871346"
           x="83.156494"
           sodipodi:role="line"><tspan
             id="tspan1060-6"
             style="font-size:9.17222023px;text-align:start;text-anchor:start;fill:#f80000;fill-opacity:1;stroke-width:0.26458299px"
             y="22.871346"
             x="83.156494">materials of linked page </tspan></tspan><tspan
           style="stroke-width:0.26458299px"
           id="tspan1068-0"
           y="32.240623"
           x="83.156494"
           sodipodi:role="line"><tspan
             id="tspan1064-6"
             style="font-size:9.17222023px;text-align:start;text-anchor:start;fill:#f80000;fill-opacity:1;stroke-width:0.26458299px"
             y="32.240623"
             x="83.156494">is counted</tspan><tspan
             id="tspan1066-2"
             style="font-size:9.17222023px;text-align:start;text-anchor:start;fill:#f80000;fill-opacity:1;stroke-width:0.26458299px"
             y="32.240623"
             x="130.77322"
             dx="0" /></tspan></text>
    </g>
    <g
       transform="translate(-135.77425,8.606758)"
       id="g1658-6">
      <path
         style="fill:none;fill-rule:evenodd;stroke:#0000ff;stroke-width:3.7650001;stroke-linecap:butt;stroke-linejoin:miter;stroke-miterlimit:4;stroke-dasharray:none;stroke-opacity:1;marker-end:url(#Arrow1Send-8-4-5)"
         d="M 30,51.279787 H 72.33333"
         id="path853-8-1-1"
         inkscape:connector-curvature="0" />
      <text
         id="text1174-8"
         y="45.329926"
         x="82.896736"
         style="font-style:normal;font-variant:normal;font-weight:normal;font-stretch:normal;font-size:7.05556011px;line-height:125%;font-family:sans-serif;-inkscape-font-specification:sans-serif;text-align:justify;letter-spacing:0px;word-spacing:0px;text-anchor:start;fill:#0000ff;fill-opacity:1;stroke:none;stroke-width:0.26458299px;stroke-linecap:butt;stroke-linejoin:miter;stroke-opacity:1"
         xml:space="preserve"><tspan
           style="stroke-width:0.26458299px"
           id="tspan1162-7"
           y="45.329926"
           x="82.896736"
           sodipodi:role="line"><tspan
             id="tspan1160-9"
             style="font-size:9.17222023px;text-align:start;text-anchor:start;fill:#0000ff;fill-opacity:1;stroke-width:0.26458299px"
             y="45.329926"
             x="82.896736">Part link: Only linked item </tspan></tspan><tspan
           style="stroke-width:0.26458299px"
           id="tspan1166-2"
           y="54.699203"
           x="82.896736"
           sodipodi:role="line"><tspan
             id="tspan1164-0"
             style="font-size:9.17222023px;text-align:start;text-anchor:start;fill:#0000ff;fill-opacity:1;stroke-width:0.26458299px"
             y="54.699203"
             x="82.896736">is counted in bill of </tspan></tspan><tspan
           style="stroke-width:0.26458299px"
           id="tspan1172-2"
           y="64.068489"
           x="82.896736"
           sodipodi:role="line"><tspan
             id="tspan1168-3"
             style="font-size:9.17222023px;text-align:start;text-anchor:start;fill:#0000ff;fill-opacity:1;stroke-width:0.26458299px"
             y="64.068489"
             x="82.896736">materials.</tspan><tspan
             id="tspan1170-7"
             style="font-size:9.17222023px;text-align:start;text-anchor:start;fill:#0000ff;fill-opacity:1;stroke-width:0.26458299px"
             y="64.068489"
             x="128.90115"
             dx="0" /></tspan></text>
    </g>
    <g
       transform="translate(-122.4961,5.2520931)"
       id="g3139">
      <path
         style="fill:none;fill-rule:evenodd;stroke:#ff0c80;stroke-width:3.76502085;stroke-linecap:butt;stroke-linejoin:miter;stroke-miterlimit:4;stroke-dasharray:none;stroke-opacity:1;marker-start:url(#Arrow1Sstart-3);marker-end:url(#marker1945-7)"
         d="M 16.721845,84.650991 H 59.055174"
         id="path853-8-1-0-5"
         inkscape:connector-curvature="0" />
      <text
         id="text1174-3-9"
         y="78.701126"
         x="69.618584"
         style="font-style:normal;font-variant:normal;font-weight:normal;font-stretch:normal;font-size:7.05556011px;line-height:125%;font-family:sans-serif;-inkscape-font-specification:sans-serif;text-align:justify;letter-spacing:0px;word-spacing:0px;text-anchor:start;fill:#ff0c80;fill-opacity:1;stroke:none;stroke-width:0.26458299px;stroke-linecap:butt;stroke-linejoin:miter;stroke-opacity:1"
         xml:space="preserve"><tspan
           style="font-size:9.172225px;fill:#ff0c80;fill-opacity:1;stroke-width:0.26458299px"
           id="tspan1172-3-2"
           y="78.701126"
           x="69.618584"
           sodipodi:role="line"><tspan
             dx="0 0 0 0 0 0 0 0 0 0 0 0 0 0 0 0 0 0 0 0 0 0 0 0 0"
             id="tspan1160-1-2"
             style="font-size:9.172225px;text-align:start;text-anchor:start;fill:#ff0c80;fill-opacity:1;stroke-width:0.26458299px"
             y="78.701126"
             x="69.618584">Output link: A part link</tspan></tspan><tspan
           id="tspan2127-8"
           style="font-size:9.172225px;fill:#ff0c80;fill-opacity:1;stroke-width:0.26458299px"
           y="88.104256"
           x="69.618584"
           sodipodi:role="line">to something defined in</tspan><tspan
           id="tspan2129-9"
           style="font-size:9.172225px;fill:#ff0c80;fill-opacity:1;stroke-width:0.26458299px"
           y="97.507385"
           x="69.618584"
           sodipodi:role="line">another step.</tspan></text>
    </g>
    <g
       transform="translate(-135.77425,102.49034)"
       id="g1680-0">
      <g
         id="g3088">
        <path
           inkscape:connector-curvature="0"
           id="path853-8-9"
           d="M 30,19.451918 H 72.33333"
           style="fill:none;fill-rule:evenodd;stroke:#010000;stroke-width:3.76502109;stroke-linecap:butt;stroke-linejoin:miter;stroke-miterlimit:4;stroke-dasharray:none;stroke-opacity:1;marker-end:url(#marker1336)" />
        <text
           xml:space="preserve"
           style="font-style:normal;font-variant:normal;font-weight:normal;font-stretch:normal;font-size:9.17222214px;line-height:125%;font-family:sans-serif;-inkscape-font-specification:sans-serif;text-align:justify;letter-spacing:0px;word-spacing:0px;text-anchor:start;fill:#010000;fill-opacity:1;stroke:none;stroke-width:0.26458299px;stroke-linecap:butt;stroke-linejoin:miter;stroke-opacity:1"
           x="83.156494"
           y="21.823349"
           id="text1070-3"><tspan
             sodipodi:role="line"
             x="83.156494"
             y="21.823349"
             id="tspan1068-6"
             style="fill:#010000;fill-opacity:1;stroke-width:0.26458299px">Standard Hyperlink</tspan></text>
      </g>
    </g>
  </g>
  <text
     xml:space="preserve"
     style="font-style:normal;font-variant:normal;font-weight:normal;font-stretch:normal;font-size:7.05556011px;line-height:125%;font-family:sans-serif;-inkscape-font-specification:sans-serif;text-align:justify;letter-spacing:0px;word-spacing:0px;text-anchor:start;fill:#000000;fill-opacity:1;stroke:none;stroke-width:0.26458299px;stroke-linecap:butt;stroke-linejoin:miter;stroke-opacity:1"
     x="286.40887"
     y="61.901962"
     id="text855"><tspan
       x="286.40887"
       y="68.144478"
       style="font-size:8.81943989px;stroke-width:0.26458299px"
       id="tspan871" /></text>
  <rect
     style="opacity:1;fill:#ffffff;fill-opacity:1;stroke:#000000;stroke-width:2;stroke-linecap:round;stroke-linejoin:round;stroke-miterlimit:4;stroke-dasharray:none;stroke-dashoffset:0;stroke-opacity:1"
     id="rect815"
     width="121.70833"
     height="156.48215"
     x="266.75418"
     y="36.199581" />
  <text
     id="text1158"
     y="57.596748"
     x="269.77783"
     style="font-style:normal;font-variant:normal;font-weight:normal;font-stretch:normal;font-size:7.05556011px;line-height:0;font-family:sans-serif;-inkscape-font-specification:sans-serif;text-align:justify;letter-spacing:0px;word-spacing:0px;text-anchor:start;fill:#000000;fill-opacity:1;stroke:none;stroke-width:0.26458299px;stroke-linecap:butt;stroke-linejoin:miter;stroke-opacity:1"
     xml:space="preserve"><tspan
       id="tspan430"
       style="font-style:normal;font-variant:normal;font-weight:normal;font-stretch:normal;font-size:9.17222023px;line-height:100%;font-family:monospace;-inkscape-font-specification:monospace;stroke-width:0.26458299px"
       y="59.542351"
       x="269.77783"
       sodipodi:role="line" /></text>
  <rect
     style="opacity:1;fill:#ffffff;fill-opacity:1;stroke:#000000;stroke-width:2;stroke-linecap:round;stroke-linejoin:round;stroke-miterlimit:4;stroke-dasharray:none;stroke-dashoffset:0;stroke-opacity:1"
     id="rect815-2"
     width="121.70833"
     height="156.48215"
     x="116.31966"
     y="149.06091" />
  <text
     id="text1304"
     y="171.96999"
     x="121.61119"
     style="font-style:normal;font-variant:normal;font-weight:normal;font-stretch:normal;font-size:7.05556011px;line-height:125%;font-family:sans-serif;-inkscape-font-specification:sans-serif;text-align:justify;letter-spacing:0px;word-spacing:0px;text-anchor:start;fill:#000000;fill-opacity:1;stroke:none;stroke-width:0.26458299px;stroke-linecap:butt;stroke-linejoin:miter;stroke-opacity:1"
     xml:space="preserve"><tspan
       style="font-style:normal;font-variant:normal;font-weight:normal;font-stretch:normal;font-size:9.17222023px;font-family:monospace;-inkscape-font-specification:monospace;stroke-width:0.26458299px"
       y="178.32532"
       x="121.61119"
       sodipodi:role="line"
       id="tspan3893" /></text>
  <rect
     style="opacity:1;fill:#ffffff;fill-opacity:1;stroke:#000000;stroke-width:2;stroke-linecap:round;stroke-linejoin:round;stroke-miterlimit:4;stroke-dasharray:none;stroke-dashoffset:0;stroke-opacity:1"
     id="rect815-37"
     width="121.70833"
     height="156.48215"
     x="417.18869"
     y="149.06091" />
  <text
     id="text1342"
     y="171.96999"
     x="422.66019"
     style="font-style:normal;font-variant:normal;font-weight:normal;font-stretch:normal;font-size:7.05556011px;line-height:125%;font-family:sans-serif;-inkscape-font-specification:sans-serif;text-align:justify;letter-spacing:0px;word-spacing:0px;text-anchor:start;fill:#000000;fill-opacity:1;stroke:none;stroke-width:0.26458299px;stroke-linecap:butt;stroke-linejoin:miter;stroke-opacity:1"
     xml:space="preserve"><tspan
       style="font-size:9.17222023px;stroke-width:0.26458299px"
       id="tspan1340"
       y="178.32532"
       x="422.66019"
       sodipodi:role="line" /></text>
  <path
     style="fill:none;fill-rule:evenodd;stroke:#000000;stroke-width:3.76502109;stroke-linecap:butt;stroke-linejoin:miter;stroke-miterlimit:4;stroke-dasharray:none;stroke-opacity:1;marker-end:url(#marker1578)"
     d="m 272.83443,107.9027 -77.88397,36.1264"
     id="path853"
     inkscape:connector-curvature="0"
     sodipodi:nodetypes="cc" />
  <path
     sodipodi:nodetypes="cc"
     style="fill:none;fill-rule:evenodd;stroke:#000000;stroke-width:3.76502109;stroke-linecap:butt;stroke-linejoin:miter;stroke-miterlimit:4;stroke-dasharray:none;stroke-opacity:1;marker-end:url(#marker1714)"
     d="m 378.21421,107.53837 49.31581,36.98618"
     id="path853-7"
     inkscape:connector-curvature="0" />
  <text
     id="text1232"
     y="155.4951"
     x="12.578529"
     style="font-style:normal;font-variant:normal;font-weight:normal;font-stretch:normal;font-size:7.05556011px;line-height:125%;font-family:sans-serif;-inkscape-font-specification:sans-serif;text-align:justify;letter-spacing:0px;word-spacing:0px;text-anchor:start;fill:#168500;fill-opacity:1;stroke:none;stroke-width:0.26458299px;stroke-linecap:butt;stroke-linejoin:miter;stroke-opacity:1"
     xml:space="preserve"><tspan
       style="font-size:9.17222214px;stroke-width:0.26458299px"
       id="tspan1214"
       y="155.4951"
       x="12.578529"
       sodipodi:role="line"><tspan
         id="tspan1210"
         style="font-size:9.17222214px;text-align:start;text-anchor:start;fill:#168500;fill-opacity:1;stroke-width:0.26458299px"
         y="155.4951"
         x="12.578529"
         dx="0 0 0 0 0 0 0 0 0 0 0 0 0 0 0 0 0 0 0">Bill of materials:</tspan></tspan><tspan
       style="font-size:9.17222214px;stroke-width:0.26458299px"
       id="tspan1218"
       y="164.31454"
       x="12.578529"
       sodipodi:role="line" /><tspan
       style="font-size:9.17222214px;stroke-width:0.26458299px"
       id="tspan1224"
       y="173.68382"
       x="12.578529"
       sodipodi:role="line"><tspan
         id="tspan1220"
         style="font-size:9.17222214px;text-align:start;text-anchor:start;fill:#168500;fill-opacity:1;stroke-width:0.26458299px"
         y="173.68382"
         x="12.578529"
         dx="0 0 0 0 0 0 0 0 0 0 0">1 x RepRap</tspan></tspan><tspan
       style="font-size:9.17222214px;stroke-width:0.26458299px"
       id="tspan1230"
       y="183.0531"
       x="12.578529"
       sodipodi:role="line"><tspan
         id="tspan1226"
         style="font-size:9.17222214px;text-align:start;text-anchor:start;fill:#168500;fill-opacity:1;stroke-width:0.26458299px"
         y="183.0531"
         x="12.578529"
         dx="0 0 0 0 0 0 0 0 0 0 0 0">200g of PLA</tspan></tspan><tspan
       style="font-size:9.17222214px;stroke-width:0.26458299px"
       y="192.45622"
       x="12.578529"
       sodipodi:role="line"
       id="tspan2864">1 x expensive lens</tspan><tspan
       style="font-size:9.17222214px;stroke-width:0.26458299px"
       y="201.85936"
       x="12.578529"
       sodipodi:role="line"
       id="tspan2866">1 x microscope objective</tspan><tspan
       style="font-size:9.17222214px;stroke-width:0.26458299px"
       y="211.26248"
       x="12.578529"
       sodipodi:role="line"
       id="tspan2868">18 x screws</tspan></text>
  <rect
     style="opacity:1;fill:#ffffff;fill-opacity:1;stroke:#000000;stroke-width:2;stroke-linecap:round;stroke-linejoin:round;stroke-miterlimit:4;stroke-dasharray:none;stroke-dashoffset:0;stroke-opacity:1"
     id="rect815-2-2-9"
     width="125.99915"
     height="156.48215"
     x="41.102356"
     y="357.0015" />
  <flowRoot
     xml:space="preserve"
     id="flowRoot937"
     style="font-style:normal;font-variant:normal;font-weight:normal;font-stretch:normal;font-size:26.66670036px;line-height:125%;font-family:sans-serif;-inkscape-font-specification:sans-serif;text-align:justify;letter-spacing:0px;word-spacing:0px;text-anchor:start;fill:#000000;fill-opacity:1;stroke:none;stroke-width:1px;stroke-linecap:butt;stroke-linejoin:miter;stroke-opacity:1"
     transform="translate(529.06959,96.009104)"><flowRegion
       id="flowRegion939"><rect
         id="rect941"
         width="325.71426"
         height="128.57143"
         x="-908.57141"
         y="22.519686" /></flowRegion><flowPara
       id="flowPara943" /></flowRoot>  <text
     xml:space="preserve"
     style="font-style:normal;font-variant:normal;font-weight:normal;font-stretch:normal;font-size:10.58333397px;line-height:1.25;font-family:monospace;-inkscape-font-specification:monospace;letter-spacing:0px;word-spacing:0px;stroke-width:0.26458335"
     x="121.80122"
     y="161.51093"
     id="text3990"><tspan
       sodipodi:role="line"
       id="tspan3988"
       x="121.80122"
       y="161.51093"
       style="font-size:9.17222214px;stroke-width:0.26458335"># Fancy Microscope</tspan><tspan
       sodipodi:role="line"
       x="121.80122"
       y="174.7401"
       style="font-size:9.17222214px;stroke-width:0.26458335"
       id="tspan3992" /><tspan
       sodipodi:role="line"
       x="121.80122"
       y="187.96925"
       style="font-size:9.17222214px;fill:#000000;fill-opacity:1;stroke-width:0.26458335"
       id="tspan4879">To make the fancy</tspan><tspan
       sodipodi:role="line"
       x="121.80122"
       y="201.19843"
       style="font-size:9.17222214px;fill:#000000;fill-opacity:1;stroke-width:0.26458335"
       id="tspan2116">microscope you</tspan><tspan
       sodipodi:role="line"
       x="121.80122"
       y="214.4276"
       style="font-size:9.17222214px;fill:#000000;fill-opacity:1;stroke-width:0.26458335"
       id="tspan2118">should</tspan><tspan
       sodipodi:role="line"
       x="121.80122"
       y="227.65677"
       style="font-size:9.17222214px;fill:#000000;fill-opacity:1;stroke-width:0.26458335"
       id="tspan2120">* <tspan
   style="fill:#ff0000;fill-opacity:1"
   id="tspan2140">[Print the parts]</tspan></tspan><tspan
       sodipodi:role="line"
       x="121.80122"
       y="240.88593"
       style="font-size:9.17222214px;fill:#ff0000;fill-opacity:1;stroke-width:0.26458335"
       id="tspan2124">{step}</tspan><tspan
       sodipodi:role="line"
       x="121.80122"
       y="254.1151"
       style="font-size:9.17222214px;fill:#000000;fill-opacity:1;stroke-width:0.26458335"
       id="tspan2122">* <tspan
   style="fill:#ff0000;fill-opacity:1"
   id="tspan2146">[Assemble fancy</tspan></tspan><tspan
       sodipodi:role="line"
       x="121.80122"
       y="267.34427"
       style="font-size:9.17222214px;fill:#ff0000;fill-opacity:1;stroke-width:0.26458335"
       id="tspan2126">optics]{step}</tspan><tspan
       sodipodi:role="line"
       x="121.80122"
       y="280.57343"
       style="font-size:9.17222214px;fill:#000000;fill-opacity:1;stroke-width:0.26458335"
       id="tspan2128">* <tspan
   style="fill:#ff0000;fill-opacity:1"
   id="tspan2156">[Final assembly]</tspan></tspan><tspan
       sodipodi:role="line"
       x="121.80122"
       y="293.80261"
       style="font-size:9.17222214px;fill:#ff0000;fill-opacity:1;stroke-width:0.26458335"
       id="tspan2138">{step}</tspan></text>
  <text
     xml:space="preserve"
     style="font-style:normal;font-variant:normal;font-weight:normal;font-stretch:normal;font-size:10.58333397px;line-height:1.25;font-family:monospace;-inkscape-font-specification:monospace;letter-spacing:0px;word-spacing:0px;stroke-width:0.26458335"
     x="269.74432"
     y="50.951389"
     id="text3134"><tspan
       sodipodi:role="line"
       id="tspan3132"
       x="269.74432"
       y="50.951389"
       style="font-size:9.17222214px;stroke-width:0.26458335"># Open Microscope</tspan><tspan
       sodipodi:role="line"
       x="269.74432"
       y="64.180557"
       style="font-size:9.17222214px;stroke-width:0.26458335"
       id="tspan3140" /><tspan
       sodipodi:role="line"
       x="269.74432"
       y="77.409721"
       style="font-size:9.17222214px;stroke-width:0.26458335"
       id="tspan3146">This open microscope</tspan><tspan
       sodipodi:role="line"
       x="269.74432"
       y="90.638893"
       style="font-size:9.17222214px;stroke-width:0.26458335"
       id="tspan213">has two variations:</tspan><tspan
       sodipodi:role="line"
       x="269.74432"
       y="103.86806"
       style="font-size:9.17222214px;stroke-width:0.26458335"
       id="tspan221">[fancy] and [simple].</tspan></text>
  <flowRoot
     xml:space="preserve"
     id="flowRoot2130"
     style="font-style:normal;font-variant:normal;font-weight:normal;font-stretch:normal;font-size:10.58333397px;line-height:1.25;font-family:monospace;-inkscape-font-specification:monospace;letter-spacing:0px;word-spacing:0px;stroke-width:0.26458335"><flowRegion
       id="flowRegion2132"
       style="stroke-width:0.26458335"><rect
         id="rect2134"
         width="700.26221"
         height="213.68295"
         x="7.7234802"
         y="283.14978"
         style="stroke-width:0.26458335" /></flowRegion><flowPara
       id="flowPara2136"
       style="stroke-width:0.26458335"></flowPara></flowRoot>  <flowRoot
     xml:space="preserve"
     id="flowRoot2148"
     style="font-style:normal;font-variant:normal;font-weight:normal;font-stretch:normal;font-size:10.58333397px;line-height:1.25;font-family:monospace;-inkscape-font-specification:monospace;letter-spacing:0px;word-spacing:0px;stroke-width:0.26458335"><flowRegion
       id="flowRegion2150"
       style="stroke-width:0.26458335"><rect
         id="rect2152"
         width="15.44696"
         height="13.301549"
         x="130.44099"
         y="277.57172"
         style="stroke-width:0.26458335" /></flowRegion><flowPara
       id="flowPara2154"
       style="stroke-width:0.26458335"></flowPara></flowRoot>  <text
     xml:space="preserve"
     style="font-style:normal;font-variant:normal;font-weight:normal;font-stretch:normal;font-size:10.58333397px;line-height:1.25;font-family:monospace;-inkscape-font-specification:monospace;letter-spacing:0px;word-spacing:0px;stroke-width:0.26458335"
     x="421.78918"
     y="161.44928"
     id="text3990-3"><tspan
       sodipodi:role="line"
       id="tspan3988-6"
       x="421.78918"
       y="161.44928"
       style="font-size:9.17222214px;stroke-width:0.26458335"># Simple Microscope</tspan><tspan
       sodipodi:role="line"
       x="421.78918"
       y="174.67845"
       style="font-size:9.17222214px;stroke-width:0.26458335"
       id="tspan3992-1" /><tspan
       sodipodi:role="line"
       x="421.78918"
       y="187.90761"
       style="font-size:9.17222214px;fill:#000000;fill-opacity:1;stroke-width:0.26458335"
       id="tspan4879-2">To make the simple</tspan><tspan
       sodipodi:role="line"
       x="421.78918"
       y="201.13678"
       style="font-size:9.17222214px;fill:#000000;fill-opacity:1;stroke-width:0.26458335"
       id="tspan2116-9">microscope you</tspan><tspan
       sodipodi:role="line"
       x="421.78918"
       y="214.36595"
       style="font-size:9.17222214px;fill:#000000;fill-opacity:1;stroke-width:0.26458335"
       id="tspan2118-3">should</tspan><tspan
       sodipodi:role="line"
       x="421.78918"
       y="227.59512"
       style="font-size:9.17222214px;fill:#000000;fill-opacity:1;stroke-width:0.26458335"
       id="tspan2120-1">* <tspan
   style="fill:#ff0000;fill-opacity:1;stroke-width:0.26458335"
   id="tspan2140-9">[Print the parts]</tspan></tspan><tspan
       sodipodi:role="line"
       x="421.78918"
       y="240.82428"
       style="font-size:9.17222214px;fill:#ff0000;fill-opacity:1;stroke-width:0.26458335"
       id="tspan2124-4">{step}</tspan><tspan
       sodipodi:role="line"
       x="421.78918"
       y="254.05345"
       style="font-size:9.17222214px;fill:#000000;fill-opacity:1;stroke-width:0.26458335"
       id="tspan2122-7">* <tspan
   style="fill:#ff0000;fill-opacity:1;stroke-width:0.26458335"
   id="tspan2146-8">[Assemble simple</tspan></tspan><tspan
       sodipodi:role="line"
       x="421.78918"
       y="267.28262"
       style="font-size:9.17222214px;fill:#ff0000;fill-opacity:1;stroke-width:0.26458335"
       id="tspan2126-4">optics]{step}</tspan><tspan
       sodipodi:role="line"
       x="421.78918"
       y="280.51178"
       style="font-size:9.17222214px;fill:#000000;fill-opacity:1;stroke-width:0.26458335"
       id="tspan2128-5">* <tspan
   style="fill:#ff0000;fill-opacity:1;stroke-width:0.26458335"
   id="tspan2156-0">[Final assembly]</tspan></tspan><tspan
       sodipodi:role="line"
       x="421.78918"
       y="293.74097"
       style="font-size:9.17222214px;fill:#ff0000;fill-opacity:1;stroke-width:0.26458335"
       id="tspan2138-3">{step}</tspan></text>
  <text
     xml:space="preserve"
     style="font-style:normal;font-variant:normal;font-weight:normal;font-stretch:normal;font-size:10.58333397px;line-height:1.25;font-family:monospace;-inkscape-font-specification:monospace;letter-spacing:0px;word-spacing:0px;stroke-width:0.26458335"
     x="44.200024"
     y="371.37671"
     id="text3990-6"><tspan
       sodipodi:role="line"
       id="tspan3988-1"
       x="44.200024"
       y="371.37671"
       style="font-size:9.17222214px;stroke-width:0.26458335"># Printing parts</tspan><tspan
       sodipodi:role="line"
       x="44.200024"
       y="384.60587"
       style="font-size:9.17222214px;stroke-width:0.26458335"
       id="tspan3992-0" /><tspan
       sodipodi:role="line"
       x="44.200024"
       y="397.83505"
       style="font-size:9.17222214px;stroke-width:0.26458335"
       id="tspan3996">From the design files</tspan><tspan
       sodipodi:role="line"
       x="44.200024"
       y="411.06421"
       style="font-size:9.17222214px;stroke-width:0.26458335"
       id="tspan218">print the parts from</tspan><tspan
       sodipodi:role="line"
       x="44.200024"
       y="424.29337"
       style="font-size:9.17222214px;stroke-width:0.26458335"
       id="tspan3998"><tspan
   style="fill:#0000ff;fill-opacity:1;stroke-width:0.26458335"
   id="tspan4887">[PLA]{Qty: 200g} </tspan>Using</tspan><tspan
       sodipodi:role="line"
       x="44.200024"
       y="437.52255"
       style="font-size:9.17222214px;stroke-width:0.26458335"
       id="tspan1140">a <tspan
   style="fill:#0000ff;fill-opacity:1;stroke-width:0.26458335"
   id="tspan1144">[RepRep]{Qty: 1}</tspan>.</tspan><tspan
       sodipodi:role="line"
       x="44.200024"
       y="450.75171"
       style="font-size:9.17222214px;stroke-width:0.26458335"
       id="tspan4000" /><tspan
       sodipodi:role="line"
       x="44.200024"
       y="463.9809"
       style="font-size:9.17222214px;fill:#000000;fill-opacity:1;stroke-width:0.26458335"
       id="tspan4010">You now have some</tspan><tspan
       sodipodi:role="line"
       x="44.200024"
       y="477.21005"
       style="font-size:9.17222214px;fill:#ff0c80;fill-opacity:1;stroke-width:0.26458335"
       id="tspan225">[platic parts]{output,</tspan><tspan
       sodipodi:role="line"
       x="44.200024"
       y="490.43921"
       style="font-size:9.17222214px;fill:#ff0c80;fill-opacity:1;stroke-width:0.26458335"
       id="tspan4879-6">Qty: Lots}</tspan></text>
  <rect
     style="opacity:1;fill:#ffffff;fill-opacity:1;stroke:#000000;stroke-width:2;stroke-linecap:round;stroke-linejoin:round;stroke-miterlimit:4;stroke-dasharray:none;stroke-dashoffset:0;stroke-opacity:1"
     id="rect815-2-2-9-3"
     width="125.99915"
     height="156.48215"
     x="190.46858"
     y="357.0015" />
  <text
     xml:space="preserve"
     style="font-style:normal;font-variant:normal;font-weight:normal;font-stretch:normal;font-size:10.58333397px;line-height:1.25;font-family:monospace;-inkscape-font-specification:monospace;letter-spacing:0px;word-spacing:0px;stroke-width:0.26458335"
     x="192.26959"
     y="370.4826"
     id="text3990-6-7"><tspan
       sodipodi:role="line"
       id="tspan3988-1-4"
       x="192.26959"
       y="370.4826"
       style="font-size:9.17222214px;stroke-width:0.26458335"># Fancy optics</tspan><tspan
       sodipodi:role="line"
       x="192.26959"
       y="383.71176"
       style="font-size:9.17222214px;stroke-width:0.26458335"
       id="tspan3992-0-5" /><tspan
       sodipodi:role="line"
       x="192.26959"
       y="396.94095"
       style="font-size:9.17222214px;stroke-width:0.26458335"
       id="tspan1140-4">Assemble an <tspan
   style="fill:#0000ff;fill-opacity:1"
   id="tspan2641">[expensive</tspan></tspan><tspan
       sodipodi:role="line"
       x="192.26959"
       y="410.1701"
       style="font-size:9.17222214px;stroke-width:0.26458335"
       id="tspan2635"><tspan
   style="fill:#0000ff;fill-opacity:1"
   id="tspan2643">lens]{Qty: 1}</tspan> and a</tspan><tspan
       sodipodi:role="line"
       x="192.26959"
       y="423.39926"
       style="font-size:9.17222214px;fill:#0000ff;fill-opacity:1;stroke-width:0.26458335"
       id="tspan2637">[microscope objective]</tspan><tspan
       sodipodi:role="line"
       x="192.26959"
       y="436.62845"
       style="font-size:9.17222214px;stroke-width:0.26458335"
       id="tspan2639"><tspan
   style="fill:#0000ff;fill-opacity:1"
   id="tspan2659">{Qty: 1}</tspan>.</tspan><tspan
       sodipodi:role="line"
       x="192.26959"
       y="449.8576"
       style="font-size:9.17222214px;stroke-width:0.26458335"
       id="tspan4000-3" /><tspan
       sodipodi:role="line"
       x="192.26959"
       y="463.08679"
       style="font-size:9.17222214px;fill:#000000;fill-opacity:1;stroke-width:0.26458335"
       id="tspan4010-0">You now have an</tspan><tspan
       sodipodi:role="line"
       x="192.26959"
       y="476.31595"
       style="font-size:9.17222214px;fill:#ff0c80;fill-opacity:1;stroke-width:0.26458335"
       id="tspan225-7">[optics module]</tspan><tspan
       sodipodi:role="line"
       x="192.26959"
       y="489.5451"
       style="font-size:9.17222214px;fill:#ff0c80;fill-opacity:1;stroke-width:0.26458335"
       id="tspan4879-6-8">{output, Qty: 1}</tspan></text>
  <rect
     style="opacity:1;fill:#ffffff;fill-opacity:1;stroke:#000000;stroke-width:2;stroke-linecap:round;stroke-linejoin:round;stroke-miterlimit:4;stroke-dasharray:none;stroke-dashoffset:0;stroke-opacity:1"
     id="rect815-2-2-9-6"
     width="125.99915"
     height="156.48215"
     x="339.83481"
     y="357.0015" />
  <text
     xml:space="preserve"
     style="font-style:normal;font-variant:normal;font-weight:normal;font-stretch:normal;font-size:10.58333397px;line-height:1.25;font-family:monospace;-inkscape-font-specification:monospace;letter-spacing:0px;word-spacing:0px;stroke-width:0.26458335"
     x="344.55182"
     y="370.57352"
     id="text3990-6-7-6"><tspan
       sodipodi:role="line"
       id="tspan3988-1-4-4"
       x="344.55182"
       y="370.57352"
       style="font-size:9.17222214px;stroke-width:0.26458335"># Simple optics</tspan><tspan
       sodipodi:role="line"
       x="344.55182"
       y="383.80267"
       style="font-size:9.17222214px;stroke-width:0.26458335"
       id="tspan3992-0-5-9" /><tspan
       sodipodi:role="line"
       x="344.55182"
       y="397.03186"
       style="font-size:9.17222214px;stroke-width:0.26458335"
       id="tspan2635-4">Assemble a <tspan
   style="fill:#0000ff;fill-opacity:1;stroke-width:0.26458335"
   id="tspan2641-0">[cheap</tspan></tspan><tspan
       sodipodi:role="line"
       x="344.55182"
       y="410.26102"
       style="font-size:9.17222214px;stroke-width:0.26458335"
       id="tspan2729"><tspan
   style="fill:#0000ff;fill-opacity:1;stroke-width:0.26458335"
   id="tspan2731">lens]{Qty: 1}</tspan> and a</tspan><tspan
       sodipodi:role="line"
       x="344.55182"
       y="423.49017"
       style="font-size:9.17222214px;fill:#0000ff;fill-opacity:1;stroke-width:0.26458335"
       id="tspan2637-7">[small tube]</tspan><tspan
       sodipodi:role="line"
       x="344.55182"
       y="436.71936"
       style="font-size:9.17222214px;stroke-width:0.26458335"
       id="tspan2639-1"><tspan
   style="fill:#0000ff;fill-opacity:1;stroke-width:0.26458335"
   id="tspan2659-7">{Qty: 1}</tspan>.</tspan><tspan
       sodipodi:role="line"
       x="344.55182"
       y="449.94852"
       style="font-size:9.17222214px;stroke-width:0.26458335"
       id="tspan4000-3-2" /><tspan
       sodipodi:role="line"
       x="344.55182"
       y="463.1777"
       style="font-size:9.17222214px;fill:#000000;fill-opacity:1;stroke-width:0.26458335"
       id="tspan4010-0-7">You now have an</tspan><tspan
       sodipodi:role="line"
       x="344.55182"
       y="476.40686"
       style="font-size:9.17222214px;fill:#ff0c80;fill-opacity:1;stroke-width:0.26458335"
       id="tspan225-7-2">[optics module]</tspan><tspan
       sodipodi:role="line"
       x="344.55182"
       y="489.63602"
       style="font-size:9.17222214px;fill:#ff0c80;fill-opacity:1;stroke-width:0.26458335"
       id="tspan4879-6-8-2">{output, Qty: 1}</tspan></text>
  <text
     xml:space="preserve"
     style="font-style:normal;font-variant:normal;font-weight:normal;font-stretch:normal;font-size:10.58333397px;line-height:1.25;font-family:monospace;-inkscape-font-specification:monospace;letter-spacing:0px;word-spacing:0px;stroke-width:0.26458335"
     x="495.73096"
     y="369.28629"
     id="text3990-6-7-6-6"><tspan
       sodipodi:role="line"
       id="tspan3988-1-4-4-1"
       x="495.73096"
       y="369.28629"
       style="font-size:9.17222214px;fill:#000000;fill-opacity:1;stroke-width:0.26458335"># Final assembly</tspan><tspan
       sodipodi:role="line"
       x="495.73096"
       y="382.51544"
       style="font-size:9.17222214px;fill:#000000;fill-opacity:1;stroke-width:0.26458335"
       id="tspan3992-0-5-9-0" /><tspan
       sodipodi:role="line"
       x="495.73096"
       y="395.74463"
       style="font-size:9.17222214px;fill:#000000;fill-opacity:1;stroke-width:0.26458335"
       id="tspan2639-1-9">Assemble the <tspan
   style="fill:#ff0c80;fill-opacity:1"
   id="tspan2816">[plastic</tspan></tspan><tspan
       sodipodi:role="line"
       x="495.73096"
       y="408.97379"
       style="font-size:9.17222214px;fill:#ff0c80;fill-opacity:1;stroke-width:0.26458335"
       id="tspan2806">parts]{Qty: Lots}</tspan><tspan
       sodipodi:role="line"
       x="495.73096"
       y="422.20294"
       style="font-size:9.17222214px;fill:#000000;fill-opacity:1;stroke-width:0.26458335"
       id="tspan2812">with some <tspan
   style="fill:#0000ff;fill-opacity:1"
   id="tspan2822">[screws]</tspan></tspan><tspan
       sodipodi:role="line"
       x="495.73096"
       y="435.43213"
       style="font-size:9.17222214px;fill:#000000;fill-opacity:1;stroke-width:0.26458335"
       id="tspan2814"><tspan
   style="fill:#0000ff;fill-opacity:1"
   id="tspan2824">{Qty: 18}</tspan>. Finally,</tspan><tspan
       sodipodi:role="line"
       x="495.73096"
       y="448.66129"
       style="font-size:9.17222214px;fill:#000000;fill-opacity:1;stroke-width:0.26458335"
       id="tspan2808">clip in the <tspan
   style="fill:#ff0c80;fill-opacity:1"
   id="tspan2818">[optics</tspan></tspan><tspan
       sodipodi:role="line"
       x="495.73096"
       y="461.89047"
       style="font-size:9.17222214px;fill:#000000;fill-opacity:1;stroke-width:0.26458335"
       id="tspan2810"><tspan
   style="fill:#ff0c80;fill-opacity:1"
   id="tspan2820">module{Qty: 1}</tspan>.</tspan><tspan
       sodipodi:role="line"
       x="495.73096"
       y="475.11963"
       style="font-size:9.17222214px;fill:#000000;fill-opacity:1;stroke-width:0.26458335"
       id="tspan4000-3-2-9" /><tspan
       sodipodi:role="line"
       x="495.73096"
       y="488.34879"
       style="font-size:9.17222214px;fill:#000000;fill-opacity:1;stroke-width:0.26458335"
       id="tspan4879-6-8-2-7" /></text>
  <text
     id="text1232-1"
     y="157.71013"
     x="547.0282"
     style="font-style:normal;font-variant:normal;font-weight:normal;font-stretch:normal;font-size:7.05556011px;line-height:125%;font-family:sans-serif;-inkscape-font-specification:sans-serif;text-align:justify;letter-spacing:0px;word-spacing:0px;text-anchor:start;fill:#168500;fill-opacity:1;stroke:none;stroke-width:0.26458299px;stroke-linecap:butt;stroke-linejoin:miter;stroke-opacity:1"
     xml:space="preserve"><tspan
       style="font-size:9.17222214px;stroke-width:0.26458299px"
       id="tspan1214-1"
       y="157.71013"
       x="547.0282"
       sodipodi:role="line"><tspan
         id="tspan1210-5"
         style="font-size:9.17222214px;text-align:start;text-anchor:start;fill:#168500;fill-opacity:1;stroke-width:0.26458299px"
         y="157.71013"
         x="547.0282"
         dx="0 0 0 0 0 0 0 0 0 0 0 0 0 0 0 0 0 0 0">Bill of materials:</tspan></tspan><tspan
       style="font-size:9.17222214px;stroke-width:0.26458299px"
       id="tspan1218-9"
       y="166.52957"
       x="547.0282"
       sodipodi:role="line" /><tspan
       style="font-size:9.17222214px;stroke-width:0.26458299px"
       id="tspan1224-7"
       y="175.89885"
       x="547.0282"
       sodipodi:role="line"><tspan
         id="tspan1220-7"
         style="font-size:9.17222214px;text-align:start;text-anchor:start;fill:#168500;fill-opacity:1;stroke-width:0.26458299px"
         y="175.89885"
         x="547.0282"
         dx="0 0 0 0 0 0 0 0 0 0 0">1 x RepRap</tspan></tspan><tspan
       style="font-size:9.17222214px;stroke-width:0.26458299px"
       id="tspan1230-6"
       y="185.26813"
       x="547.0282"
       sodipodi:role="line"><tspan
         id="tspan1226-7"
         style="font-size:9.17222214px;text-align:start;text-anchor:start;fill:#168500;fill-opacity:1;stroke-width:0.26458299px"
         y="185.26813"
         x="547.0282"
         dx="0 0 0 0 0 0 0 0 0 0 0 0">200g of PLA</tspan></tspan><tspan
       style="font-size:9.17222214px;stroke-width:0.26458299px"
       y="194.67125"
       x="547.0282"
       sodipodi:role="line"
       id="tspan2864-3">1 x cheap lens</tspan><tspan
       style="font-size:9.17222214px;stroke-width:0.26458299px"
       y="204.07439"
       x="547.0282"
       sodipodi:role="line"
       id="tspan2866-6">1 x small tube</tspan><tspan
       style="font-size:9.17222214px;stroke-width:0.26458299px"
       y="213.47751"
       x="547.0282"
       sodipodi:role="line"
       id="tspan2868-5">18 x screws</tspan></text>
  <path
     sodipodi:nodetypes="cc"
     style="fill:none;fill-rule:evenodd;stroke:#ff0c80;stroke-width:3.76502085;stroke-linecap:butt;stroke-linejoin:miter;stroke-miterlimit:4;stroke-dasharray:none;stroke-opacity:1;marker-start:url(#Arrow1Sstart-6);marker-end:url(#marker1945-5)"
     d="m 148.73413,484.78371 c 76.40485,75.60013 631.21863,96.1152 470.3784,-78.39485"
     id="path853-8-1-0-4"
     inkscape:connector-curvature="0" />
  <path
     style="fill:none;fill-rule:evenodd;stroke:#ff0c80;stroke-width:3.76502085;stroke-linecap:butt;stroke-linejoin:miter;stroke-miterlimit:4;stroke-dasharray:none;stroke-opacity:1;marker-start:url(#Arrow1Sstart-3-6);marker-end:url(#marker1945-7-9)"
     d="m 433.85753,477.355 54.99125,-18.45054"
     id="path853-8-1-0-5-8"
     inkscape:connector-curvature="0"
     sodipodi:nodetypes="cc" />
  <path
     sodipodi:nodetypes="cc"
     style="fill:none;fill-rule:evenodd;stroke:#ff0c80;stroke-width:3.76502085;stroke-linecap:butt;stroke-linejoin:miter;stroke-miterlimit:4;stroke-dasharray:none;stroke-opacity:1;marker-start:url(#Arrow1Sstart-6-1);marker-end:url(#marker1945-5-9)"
     d="m 282.51151,498.92965 c 90.56456,39.55723 152.75351,43.87039 209.91934,-31.27465"
     id="path853-8-1-0-4-9"
     inkscape:connector-curvature="0" />
  <text
     id="text1174-3-9-0"
     y="314.30643"
     x="555.58026"
     style="font-style:normal;font-variant:normal;font-weight:normal;font-stretch:normal;font-size:7.05556011px;line-height:125%;font-family:sans-serif;-inkscape-font-specification:sans-serif;text-align:justify;letter-spacing:0px;word-spacing:0px;text-anchor:start;fill:#ff0c80;fill-opacity:1;stroke:none;stroke-width:0.26458299px;stroke-linecap:butt;stroke-linejoin:miter;stroke-opacity:1"
     xml:space="preserve"><tspan
       id="tspan2129-9-0"
       style="font-style:italic;font-variant:normal;font-weight:normal;font-stretch:normal;font-size:9.172225px;font-family:sans-serif;-inkscape-font-specification:'sans-serif Italic';fill:#ff0c80;fill-opacity:1;stroke-width:0.26458299px"
       y="314.30643"
       x="555.58026"
       sodipodi:role="line">Note: Two different versions</tspan><tspan
       style="font-style:italic;font-variant:normal;font-weight:normal;font-stretch:normal;font-size:9.172225px;font-family:sans-serif;-inkscape-font-specification:'sans-serif Italic';fill:#ff0c80;fill-opacity:1;stroke-width:0.26458299px"
       y="323.73184"
       x="555.58026"
       sodipodi:role="line"
       id="tspan10935">of this page are in the ouput.</tspan><tspan
       style="font-style:italic;font-variant:normal;font-weight:normal;font-stretch:normal;font-size:9.172225px;font-family:sans-serif;-inkscape-font-specification:'sans-serif Italic';fill:#ff0c80;fill-opacity:1;stroke-width:0.26458299px"
       y="333.15726"
       x="555.58026"
       sodipodi:role="line"
       id="tspan10951">In one [optics module] to</tspan><tspan
       style="font-style:italic;font-variant:normal;font-weight:normal;font-stretch:normal;font-size:9.172225px;font-family:sans-serif;-inkscape-font-specification:'sans-serif Italic';fill:#ff0c80;fill-opacity:1;stroke-width:0.26458299px"
       y="342.58267"
       x="555.58026"
       sodipodi:role="line"
       id="tspan10975">Fancy optics, the other to</tspan><tspan
       style="font-style:italic;font-variant:normal;font-weight:normal;font-stretch:normal;font-size:9.172225px;font-family:sans-serif;-inkscape-font-specification:'sans-serif Italic';fill:#ff0c80;fill-opacity:1;stroke-width:0.26458299px"
       y="352.00809"
       x="555.58026"
       sodipodi:role="line"
       id="tspan10977">Simple optics</tspan></text>
  <path
     style="fill:none;fill-rule:evenodd;stroke:#ff0000;stroke-width:3.7650001;stroke-linecap:butt;stroke-linejoin:miter;stroke-miterlimit:4;stroke-dasharray:none;stroke-opacity:1;marker-end:url(#Arrow1Send-8-2-9)"
     d="M 119.28732,243.48939 73.02582,347.25457"
     id="path853-8-2-3"
     inkscape:connector-curvature="0"
     sodipodi:nodetypes="cc" />
  <path
     style="fill:none;fill-rule:evenodd;stroke:#ff0000;stroke-width:3.7650001;stroke-linecap:butt;stroke-linejoin:miter;stroke-miterlimit:4;stroke-dasharray:none;stroke-opacity:1;marker-end:url(#Arrow1Send-8-2-8)"
     d="M 431.18966,227.71223 C 223.38377,357.91475 174.51522,297.62537 153.75159,351.67598"
     id="path853-8-2-6"
     inkscape:connector-curvature="0"
     sodipodi:nodetypes="cc" />
  <path
     style="fill:none;fill-rule:evenodd;stroke:#ff0000;stroke-width:3.7650001;stroke-linecap:butt;stroke-linejoin:miter;stroke-miterlimit:4;stroke-dasharray:none;stroke-opacity:1;marker-end:url(#Arrow1Send-8-2-9-1)"
     d="m 219.55884,255.43792 39.90607,94.66297"
     id="path853-8-2-3-5"
     inkscape:connector-curvature="0"
     sodipodi:nodetypes="cc" />
  <path
     style="fill:none;fill-rule:evenodd;stroke:#ff0000;stroke-width:3.7650001;stroke-linecap:butt;stroke-linejoin:miter;stroke-miterlimit:4;stroke-dasharray:none;stroke-opacity:1;marker-end:url(#Arrow1Send-8-2-9-1-8)"
     d="m 419.71385,265.44319 -32.51581,83.74032"
     id="path853-8-2-3-5-0"
     inkscape:connector-curvature="0"
     sodipodi:nodetypes="cc" />
  <path
     style="fill:none;fill-rule:evenodd;stroke:#ff0000;stroke-width:3.7650001;stroke-linecap:butt;stroke-linejoin:miter;stroke-miterlimit:4;stroke-dasharray:none;stroke-opacity:1;marker-end:url(#Arrow1Send-8-2-9-1-3)"
     d="m 521.3603,281.0014 17.15055,69.17678"
     id="path853-8-2-3-5-4"
     inkscape:connector-curvature="0"
     sodipodi:nodetypes="cc" />
  <path
     style="fill:none;fill-rule:evenodd;stroke:#ff0000;stroke-width:3.7650001;stroke-linecap:butt;stroke-linejoin:miter;stroke-miterlimit:4;stroke-dasharray:none;stroke-opacity:1;marker-end:url(#Arrow1Send-8-2-9-1-4)"
     d="m 170.01506,286.46272 c 199.91736,59.21524 310.91895,-1.49905 334.81763,63.10865"
     id="path853-8-2-3-5-47"
     inkscape:connector-curvature="0"
     sodipodi:nodetypes="cc" />
</svg>
